parallel_jpeg/test_flatten.vcd
$date
    Mon Dec  7 17:13:23 2020
$end
$version
    MyHDL 0.11
$end
$timescale
    1ns
$end

$scope module test_flatten $end
$var reg 144 ! flat $end
$scope module m_flatten0 $end
$var reg 144 ! flat $end
$var reg 9 " mcol $end
$var reg 144 # flat_i $end
$scope module mrow $end
$var reg 9 $ mrow(0) $end
$var reg 9 % mrow(1) $end
$var reg 9 & mrow(2) $end
$var reg 9 " mrow(3) $end
$upscope $end
$upscope $end
$upscope $end

$enddefinitions $end
$dumpvars
b000000000000000000000000000000000000000000000000000000000000000000000000000000000000000000000000000000000000000000000000000000000000000000000000 !
b000000000 "
b000000000000000000000000000000000000000000000000000000000000000000000000000000000000000000000000000000000000000000000000000000000000000000000000 #
b000000000 $
b000000000 %
b000000000 &
$end
#1
b001100000 "
b000000000000000000000000000000000000000000000000000000000000000000000000000000000000000000000000000000000000000000000000000000000000000001100000 #
b000000000000000000000000000000000000000000000000000000000000000000000000000000000000000000000000000000000000000000000000000000000000000001100000 !
#2
b001100000 &
b000000000000000000000000000000000000000000000000000000000000000000000000000000000000000000000000000000000000000000000000000000001100000001100000 #
b000000000000000000000000000000000000000000000000000000000000000000000000000000000000000000000000000000000000000000000000000000001100000001100000 !
#3
b001100000 %
b000000000000000000000000000000000000000000000000000000000000000000000000000000000000000000000000000000000000000000000001100000001100000001100000 #
b000000000000000000000000000000000000000000000000000000000000000000000000000000000000000000000000000000000000000000000001100000001100000001100000 !
#4
b001100000 $
b000000000000000000000000000000000000000000000000000000000000000000000000000000000000000000000000000000000000001100000001100000001100000001100000 #
b000000000000000000000000000000000000000000000000000000000000000000000000000000000000000000000000000000000000001100000001100000001100000001100000 !
#5
b000000000000000000000000000000000000000000000000000000000000000000000000000000000000000000000000000001100000001100000001100000001100000001100000 #
b000000000000000000000000000000000000000000000000000000000000000000000000000000000000000000000000000001100000001100000001100000001100000001100000 !
#6
b000000000000000000000000000000000000000000000000000000000000000000000000000000000000000000001100000001100000001100000001100000001100000001100000 #
b000000000000000000000000000000000000000000000000000000000000000000000000000000000000000000001100000001100000001100000001100000001100000001100000 !
#7
b000000000000000000000000000000000000000000000000000000000000000000000000000000000001100000001100000001100000001100000001100000001100000001100000 #
b000000000000000000000000000000000000000000000000000000000000000000000000000000000001100000001100000001100000001100000001100000001100000001100000 !
#8
b000000000000000000000000000000000000000000000000000000000000000000000000001100000001100000001100000001100000001100000001100000001100000001100000 #
b000000000000000000000000000000000000000000000000000000000000000000000000001100000001100000001100000001100000001100000001100000001100000001100000 !
#9
b000000000000000000000000000000000000000000000000000000000000000001100000001100000001100000001100000001100000001100000001100000001100000001100000 #
b000000000000000000000000000000000000000000000000000000000000000001100000001100000001100000001100000001100000001100000001100000001100000001100000 !
#10
b000000000000000000000000000000000000000000000000000000001100000001100000001100000001100000001100000001100000001100000001100000001100000001100000 #
b000000000000000000000000000000000000000000000000000000001100000001100000001100000001100000001100000001100000001100000001100000001100000001100000 !
#11
b000000000000000000000000000000000000000000000001100000001100000001100000001100000001100000001100000001100000001100000001100000001100000001100000 #
b000000000000000000000000000000000000000000000001100000001100000001100000001100000001100000001100000001100000001100000001100000001100000001100000 !
#12
b000000000000000000000000000000000000001100000001100000001100000001100000001100000001100000001100000001100000001100000001100000001100000001100000 #
b000000000000000000000000000000000000001100000001100000001100000001100000001100000001100000001100000001100000001100000001100000001100000001100000 !
#13
b000000000000000000000000000001100000001100000001100000001100000001100000001100000001100000001100000001100000001100000001100000001100000001100000 #
b000000000000000000000000000001100000001100000001100000001100000001100000001100000001100000001100000001100000001100000001100000001100000001100000 !
#14
b000000000000000000001100000001100000001100000001100000001100000001100000001100000001100000001100000001100000001100000001100000001100000001100000 #
b000000000000000000001100000001100000001100000001100000001100000001100000001100000001100000001100000001100000001100000001100000001100000001100000 !
#15
b000000000001100000001100000001100000001100000001100000001100000001100000001100000001100000001100000001100000001100000001100000001100000001100000 #
b000000000001100000001100000001100000001100000001100000001100000001100000001100000001100000001100000001100000001100000001100000001100000001100000 !
#16
b001100000001100000001100000001100000001100000001100000001100000001100000001100000001100000001100000001100000001100000001100000001100000001100000 #
b001100000001100000001100000001100000001100000001100000001100000001100000001100000001100000001100000001100000001100000001100000001100000001100000 !
#17
b110011011 "
b001100000001100000001100000001100000001100000001100000001100000001100000001100000001100000001100000001100000001100000001100000001100000110011011 #
b001100000001100000001100000001100000001100000001100000001100000001100000001100000001100000001100000001100000001100000001100000001100000110011011 !
#18
b110011011 &
b001100000001100000001100000001100000001100000001100000001100000001100000001100000001100000001100000001100000001100000001100000110011011110011011 #
b001100000001100000001100000001100000001100000001100000001100000001100000001100000001100000001100000001100000001100000001100000110011011110011011 !
#19
b110011011 %
b001100000001100000001100000001100000001100000001100000001100000001100000001100000001100000001100000001100000001100000110011011110011011110011011 #
b001100000001100000001100000001100000001100000001100000001100000001100000001100000001100000001100000001100000001100000110011011110011011110011011 !
#20
b110011011 $
b001100000001100000001100000001100000001100000001100000001100000001100000001100000001100000001100000001100000110011011110011011110011011110011011 #
b001100000001100000001100000001100000001100000001100000001100000001100000001100000001100000001100000001100000110011011110011011110011011110011011 !
#21
b001100000001100000001100000001100000001100000001100000001100000001100000001100000001100000001100000110011011110011011110011011110011011110011011 #
b001100000001100000001100000001100000001100000001100000001100000001100000001100000001100000001100000110011011110011011110011011110011011110011011 !
#22
b001100000001100000001100000001100000001100000001100000001100000001100000001100000001100000110011011110011011110011011110011011110011011110011011 #
b001100000001100000001100000001100000001100000001100000001100000001100000001100000001100000110011011110011011110011011110011011110011011110011011 !
#23
b001100000001100000001100000001100000001100000001100000001100000001100000001100000110011011110011011110011011110011011110011011110011011110011011 #
b001100000001100000001100000001100000001100000001100000001100000001100000001100000110011011110011011110011011110011011110011011110011011110011011 !
#24
b001100000001100000001100000001100000001100000001100000001100000001100000110011011110011011110011011110011011110011011110011011110011011110011011 #
b001100000001100000001100000001100000001100000001100000001100000001100000110011011110011011110011011110011011110011011110011011110011011110011011 !
#25
b001100000001100000001100000001100000001100000001100000001100000110011011110011011110011011110011011110011011110011011110011011110011011110011011 #
b001100000001100000001100000001100000001100000001100000001100000110011011110011011110011011110011011110011011110011011110011011110011011110011011 !
#26
b001100000001100000001100000001100000001100000001100000110011011110011011110011011110011011110011011110011011110011011110011011110011011110011011 #
b001100000001100000001100000001100000001100000001100000110011011110011011110011011110011011110011011110011011110011011110011011110011011110011011 !
#27
b001100000001100000001100000001100000001100000110011011110011011110011011110011011110011011110011011110011011110011011110011011110011011110011011 #
b001100000001100000001100000001100000001100000110011011110011011110011011110011011110011011110011011110011011110011011110011011110011011110011011 !
#28
b001100000001100000001100000001100000110011011110011011110011011110011011110011011110011011110011011110011011110011011110011011110011011110011011 #
b001100000001100000001100000001100000110011011110011011110011011110011011110011011110011011110011011110011011110011011110011011110011011110011011 !
#29
b001100000001100000001100000110011011110011011110011011110011011110011011110011011110011011110011011110011011110011011110011011110011011110011011 #
b001100000001100000001100000110011011110011011110011011110011011110011011110011011110011011110011011110011011110011011110011011110011011110011011 !
#30
b001100000001100000110011011110011011110011011110011011110011011110011011110011011110011011110011011110011011110011011110011011110011011110011011 #
b001100000001100000110011011110011011110011011110011011110011011110011011110011011110011011110011011110011011110011011110011011110011011110011011 !
#31
b001100000110011011110011011110011011110011011110011011110011011110011011110011011110011011110011011110011011110011011110011011110011011110011011 #
b001100000110011011110011011110011011110011011110011011110011011110011011110011011110011011110011011110011011110011011110011011110011011110011011 !
#32
b110011011110011011110011011110011011110011011110011011110011011110011011110011011110011011110011011110011011110011011110011011110011011110011011 #
b110011011110011011110011011110011011110011011110011011110011011110011011110011011110011011110011011110011011110011011110011011110011011110011011 !
#33
b000110110 "
b110011011110011011110011011110011011110011011110011011110011011110011011110011011110011011110011011110011011110011011110011011110011011000110110 #
b110011011110011011110011011110011011110011011110011011110011011110011011110011011110011011110011011110011011110011011110011011110011011000110110 !
#34
b000110110 &
b110011011110011011110011011110011011110011011110011011110011011110011011110011011110011011110011011110011011110011011110011011000110110000110110 #
b110011011110011011110011011110011011110011011110011011110011011110011011110011011110011011110011011110011011110011011110011011000110110000110110 !
#35
b000110110 %
b110011011110011011110011011110011011110011011110011011110011011110011011110011011110011011110011011110011011110011011000110110000110110000110110 #
b110011011110011011110011011110011011110011011110011011110011011110011011110011011110011011110011011110011011110011011000110110000110110000110110 !
#36
b000110110 $
b110011011110011011110011011110011011110011011110011011110011011110011011110011011110011011110011011110011011000110110000110110000110110000110110 #
b110011011110011011110011011110011011110011011110011011110011011110011011110011011110011011110011011110011011000110110000110110000110110000110110 !
#37
b110011011110011011110011011110011011110011011110011011110011011110011011110011011110011011110011011000110110000110110000110110000110110000110110 #
b110011011110011011110011011110011011110011011110011011110011011110011011110011011110011011110011011000110110000110110000110110000110110000110110 !
#38
b110011011110011011110011011110011011110011011110011011110011011110011011110011011110011011000110110000110110000110110000110110000110110000110110 #
b110011011110011011110011011110011011110011011110011011110011011110011011110011011110011011000110110000110110000110110000110110000110110000110110 !
#39
b110011011110011011110011011110011011110011011110011011110011011110011011110011011000110110000110110000110110000110110000110110000110110000110110 #
b110011011110011011110011011110011011110011011110011011110011011110011011110011011000110110000110110000110110000110110000110110000110110000110110 !
#40
b110011011110011011110011011110011011110011011110011011110011011110011011000110110000110110000110110000110110000110110000110110000110110000110110 #
b110011011110011011110011011110011011110011011110011011110011011110011011000110110000110110000110110000110110000110110000110110000110110000110110 !
#41
b110011011110011011110011011110011011110011011110011011110011011000110110000110110000110110000110110000110110000110110000110110000110110000110110 #
b110011011110011011110011011110011011110011011110011011110011011000110110000110110000110110000110110000110110000110110000110110000110110000110110 !
#42
b110011011110011011110011011110011011110011011110011011000110110000110110000110110000110110000110110000110110000110110000110110000110110000110110 #
b110011011110011011110011011110011011110011011110011011000110110000110110000110110000110110000110110000110110000110110000110110000110110000110110 !
#43
b110011011110011011110011011110011011110011011000110110000110110000110110000110110000110110000110110000110110000110110000110110000110110000110110 #
b110011011110011011110011011110011011110011011000110110000110110000110110000110110000110110000110110000110110000110110000110110000110110000110110 !
#44
b110011011110011011110011011110011011000110110000110110000110110000110110000110110000110110000110110000110110000110110000110110000110110000110110 #
b110011011110011011110011011110011011000110110000110110000110110000110110000110110000110110000110110000110110000110110000110110000110110000110110 !
#45
b110011011110011011110011011000110110000110110000110110000110110000110110000110110000110110000110110000110110000110110000110110000110110000110110 #
b110011011110011011110011011000110110000110110000110110000110110000110110000110110000110110000110110000110110000110110000110110000110110000110110 !
#46
b110011011110011011000110110000110110000110110000110110000110110000110110000110110000110110000110110000110110000110110000110110000110110000110110 #
b110011011110011011000110110000110110000110110000110110000110110000110110000110110000110110000110110000110110000110110000110110000110110000110110 !
#47
b110011011000110110000110110000110110000110110000110110000110110000110110000110110000110110000110110000110110000110110000110110000110110000110110 #
b110011011000110110000110110000110110000110110000110110000110110000110110000110110000110110000110110000110110000110110000110110000110110000110110 !
#48
b000110110000110110000110110000110110000110110000110110000110110000110110000110110000110110000110110000110110000110110000110110000110110000110110 #
b000110110000110110000110110000110110000110110000110110000110110000110110000110110000110110000110110000110110000110110000110110000110110000110110 !
#49
b110110000 "
b000110110000110110000110110000110110000110110000110110000110110000110110000110110000110110000110110000110110000110110000110110000110110110110000 #
b000110110000110110000110110000110110000110110000110110000110110000110110000110110000110110000110110000110110000110110000110110000110110110110000 !
#50
b110110000 &
b000110110000110110000110110000110110000110110000110110000110110000110110000110110000110110000110110000110110000110110000110110110110000110110000 #
b000110110000110110000110110000110110000110110000110110000110110000110110000110110000110110000110110000110110000110110000110110110110000110110000 !
#51
b110110000 %
b000110110000110110000110110000110110000110110000110110000110110000110110000110110000110110000110110000110110000110110110110000110110000110110000 #
b000110110000110110000110110000110110000110110000110110000110110000110110000110110000110110000110110000110110000110110110110000110110000110110000 !
#52
b110110000 $
b000110110000110110000110110000110110000110110000110110000110110000110110000110110000110110000110110000110110110110000110110000110110000110110000 #
b000110110000110110000110110000110110000110110000110110000110110000110110000110110000110110000110110000110110110110000110110000110110000110110000 !
#53
b000110110000110110000110110000110110000110110000110110000110110000110110000110110000110110000110110110110000110110000110110000110110000110110000 #
b000110110000110110000110110000110110000110110000110110000110110000110110000110110000110110000110110110110000110110000110110000110110000110110000 !
#54
b000110110000110110000110110000110110000110110000110110000110110000110110000110110000110110110110000110110000110110000110110000110110000110110000 #
b000110110000110110000110110000110110000110110000110110000110110000110110000110110000110110110110000110110000110110000110110000110110000110110000 !
#55
b000110110000110110000110110000110110000110110000110110000110110000110110000110110110110000110110000110110000110110000110110000110110000110110000 #
b000110110000110110000110110000110110000110110000110110000110110000110110000110110110110000110110000110110000110110000110110000110110000110110000 !
#56
b000110110000110110000110110000110110000110110000110110000110110000110110110110000110110000110110000110110000110110000110110000110110000110110000 #
b000110110000110110000110110000110110000110110000110110000110110000110110110110000110110000110110000110110000110110000110110000110110000110110000 !
#57
b000110110000110110000110110000110110000110110000110110000110110110110000110110000110110000110110000110110000110110000110110000110110000110110000 #
b000110110000110110000110110000110110000110110000110110000110110110110000110110000110110000110110000110110000110110000110110000110110000110110000 !
#58
b000110110000110110000110110000110110000110110000110110110110000110110000110110000110110000110110000110110000110110000110110000110110000110110000 #
b000110110000110110000110110000110110000110110000110110110110000110110000110110000110110000110110000110110000110110000110110000110110000110110000 !
#59
b000110110000110110000110110000110110000110110110110000110110000110110000110110000110110000110110000110110000110110000110110000110110000110110000 #
b000110110000110110000110110000110110000110110110110000110110000110110000110110000110110000110110000110110000110110000110110000110110000110110000 !
#60
b000110110000110110000110110000110110110110000110110000110110000110110000110110000110110000110110000110110000110110000110110000110110000110110000 #
b000110110000110110000110110000110110110110000110110000110110000110110000110110000110110000110110000110110000110110000110110000110110000110110000 !
#61
b000110110000110110000110110110110000110110000110110000110110000110110000110110000110110000110110000110110000110110000110110000110110000110110000 #
b000110110000110110000110110110110000110110000110110000110110000110110000110110000110110000110110000110110000110110000110110000110110000110110000 !
#62
b000110110000110110110110000110110000110110000110110000110110000110110000110110000110110000110110000110110000110110000110110000110110000110110000 #
b000110110000110110110110000110110000110110000110110000110110000110110000110110000110110000110110000110110000110110000110110000110110000110110000 !
#63
b000110110110110000110110000110110000110110000110110000110110000110110000110110000110110000110110000110110000110110000110110000110110000110110000 #
b000110110110110000110110000110110000110110000110110000110110000110110000110110000110110000110110000110110000110110000110110000110110000110110000 !
#64
b110110000110110000110110000110110000110110000110110000110110000110110000110110000110110000110110000110110000110110000110110000110110000110110000 #
b110110000110110000110110000110110000110110000110110000110110000110110000110110000110110000110110000110110000110110000110110000110110000110110000 !
#65
b111001001 "
b110110000110110000110110000110110000110110000110110000110110000110110000110110000110110000110110000110110000110110000110110000110110000111001001 #
b110110000110110000110110000110110000110110000110110000110110000110110000110110000110110000110110000110110000110110000110110000110110000111001001 !
#66
b111001001 &
b110110000110110000110110000110110000110110000110110000110110000110110000110110000110110000110110000110110000110110000110110000111001001111001001 #
b110110000110110000110110000110110000110110000110110000110110000110110000110110000110110000110110000110110000110110000110110000111001001111001001 !
#67
b111001001 %
b110110000110110000110110000110110000110110000110110000110110000110110000110110000110110000110110000110110000110110000111001001111001001111001001 #
b110110000110110000110110000110110000110110000110110000110110000110110000110110000110110000110110000110110000110110000111001001111001001111001001 !
#68
b111001001 $
b110110000110110000110110000110110000110110000110110000110110000110110000110110000110110000110110000110110000111001001111001001111001001111001001 #
b110110000110110000110110000110110000110110000110110000110110000110110000110110000110110000110110000110110000111001001111001001111001001111001001 !
#69
b110110000110110000110110000110110000110110000110110000110110000110110000110110000110110000110110000111001001111001001111001001111001001111001001 #
b110110000110110000110110000110110000110110000110110000110110000110110000110110000110110000110110000111001001111001001111001001111001001111001001 !
#70
b110110000110110000110110000110110000110110000110110000110110000110110000110110000110110000111001001111001001111001001111001001111001001111001001 #
b110110000110110000110110000110110000110110000110110000110110000110110000110110000110110000111001001111001001111001001111001001111001001111001001 !
#71
b110110000110110000110110000110110000110110000110110000110110000110110000110110000111001001111001001111001001111001001111001001111001001111001001 #
b110110000110110000110110000110110000110110000110110000110110000110110000110110000111001001111001001111001001111001001111001001111001001111001001 !
#72
b110110000110110000110110000110110000110110000110110000110110000110110000111001001111001001111001001111001001111001001111001001111001001111001001 #
b110110000110110000110110000110110000110110000110110000110110000110110000111001001111001001111001001111001001111001001111001001111001001111001001 !
#73
b110110000110110000110110000110110000110110000110110000110110000111001001111001001111001001111001001111001001111001001111001001111001001111001001 #
b110110000110110000110110000110110000110110000110110000110110000111001001111001001111001001111001001111001001111001001111001001111001001111001001 !
#74
b110110000110110000110110000110110000110110000110110000111001001111001001111001001111001001111001001111001001111001001111001001111001001111001001 #
b110110000110110000110110000110110000110110000110110000111001001111001001111001001111001001111001001111001001111001001111001001111001001111001001 !
#75
b110110000110110000110110000110110000110110000111001001111001001111001001111001001111001001111001001111001001111001001111001001111001001111001001 #
b110110000110110000110110000110110000110110000111001001111001001111001001111001001111001001111001001111001001111001001111001001111001001111001001 !
#76
b110110000110110000110110000110110000111001001111001001111001001111001001111001001111001001111001001111001001111001001111001001111001001111001001 #
b110110000110110000110110000110110000111001001111001001111001001111001001111001001111001001111001001111001001111001001111001001111001001111001001 !
#77
b110110000110110000110110000111001001111001001111001001111001001111001001111001001111001001111001001111001001111001001111001001111001001111001001 #
b110110000110110000110110000111001001111001001111001001111001001111001001111001001111001001111001001111001001111001001111001001111001001111001001 !
#78
b110110000110110000111001001111001001111001001111001001111001001111001001111001001111001001111001001111001001111001001111001001111001001111001001 #
b110110000110110000111001001111001001111001001111001001111001001111001001111001001111001001111001001111001001111001001111001001111001001111001001 !
#79
b110110000111001001111001001111001001111001001111001001111001001111001001111001001111001001111001001111001001111001001111001001111001001111001001 #
b110110000111001001111001001111001001111001001111001001111001001111001001111001001111001001111001001111001001111001001111001001111001001111001001 !
#80
b111001001111001001111001001111001001111001001111001001111001001111001001111001001111001001111001001111001001111001001111001001111001001111001001 #
b111001001111001001111001001111001001111001001111001001111001001111001001111001001111001001111001001111001001111001001111001001111001001111001001 !
#81
b111011110 "
b111001001111001001111001001111001001111001001111001001111001001111001001111001001111001001111001001111001001111001001111001001111001001111011110 #
b111001001111001001111001001111001001111001001111001001111001001111001001111001001111001001111001001111001001111001001111001001111001001111011110 !
#82
b111011110 &
b111001001111001001111001001111001001111001001111001001111001001111001001111001001111001001111001001111001001111001001111001001111011110111011110 #
b111001001111001001111001001111001001111001001111001001111001001111001001111001001111001001111001001111001001111001001111001001111011110111011110 !
#83
b111011110 %
b111001001111001001111001001111001001111001001111001001111001001111001001111001001111001001111001001111001001111001001111011110111011110111011110 #
b111001001111001001111001001111001001111001001111001001111001001111001001111001001111001001111001001111001001111001001111011110111011110111011110 !
#84
b111011110 $
b111001001111001001111001001111001001111001001111001001111001001111001001111001001111001001111001001111001001111011110111011110111011110111011110 #
b111001001111001001111001001111001001111001001111001001111001001111001001111001001111001001111001001111001001111011110111011110111011110111011110 !
#85
b111001001111001001111001001111001001111001001111001001111001001111001001111001001111001001111001001111011110111011110111011110111011110111011110 #
b111001001111001001111001001111001001111001001111001001111001001111001001111001001111001001111001001111011110111011110111011110111011110111011110 !
#86
b111001001111001001111001001111001001111001001111001001111001001111001001111001001111001001111011110111011110111011110111011110111011110111011110 #
b111001001111001001111001001111001001111001001111001001111001001111001001111001001111001001111011110111011110111011110111011110111011110111011110 !
#87
b111001001111001001111001001111001001111001001111001001111001001111001001111001001111011110111011110111011110111011110111011110111011110111011110 #
b111001001111001001111001001111001001111001001111001001111001001111001001111001001111011110111011110111011110111011110111011110111011110111011110 !
#88
b111001001111001001111001001111001001111001001111001001111001001111001001111011110111011110111011110111011110111011110111011110111011110111011110 #
b111001001111001001111001001111001001111001001111001001111001001111001001111011110111011110111011110111011110111011110111011110111011110111011110 !
#89
b111001001111001001111001001111001001111001001111001001111001001111011110111011110111011110111011110111011110111011110111011110111011110111011110 #
b111001001111001001111001001111001001111001001111001001111001001111011110111011110111011110111011110111011110111011110111011110111011110111011110 !
#90
b111001001111001001111001001111001001111001001111001001111011110111011110111011110111011110111011110111011110111011110111011110111011110111011110 #
b111001001111001001111001001111001001111001001111001001111011110111011110111011110111011110111011110111011110111011110111011110111011110111011110 !
#91
b111001001111001001111001001111001001111001001111011110111011110111011110111011110111011110111011110111011110111011110111011110111011110111011110 #
b111001001111001001111001001111001001111001001111011110111011110111011110111011110111011110111011110111011110111011110111011110111011110111011110 !
#92
b111001001111001001111001001111001001111011110111011110111011110111011110111011110111011110111011110111011110111011110111011110111011110111011110 #
b111001001111001001111001001111001001111011110111011110111011110111011110111011110111011110111011110111011110111011110111011110111011110111011110 !
#93
b111001001111001001111001001111011110111011110111011110111011110111011110111011110111011110111011110111011110111011110111011110111011110111011110 #
b111001001111001001111001001111011110111011110111011110111011110111011110111011110111011110111011110111011110111011110111011110111011110111011110 !
#94
b111001001111001001111011110111011110111011110111011110111011110111011110111011110111011110111011110111011110111011110111011110111011110111011110 #
b111001001111001001111011110111011110111011110111011110111011110111011110111011110111011110111011110111011110111011110111011110111011110111011110 !
#95
b111001001111011110111011110111011110111011110111011110111011110111011110111011110111011110111011110111011110111011110111011110111011110111011110 #
b111001001111011110111011110111011110111011110111011110111011110111011110111011110111011110111011110111011110111011110111011110111011110111011110 !
#96
b111011110111011110111011110111011110111011110111011110111011110111011110111011110111011110111011110111011110111011110111011110111011110111011110 #
b111011110111011110111011110111011110111011110111011110111011110111011110111011110111011110111011110111011110111011110111011110111011110111011110 !
#97
b100101111 "
b111011110111011110111011110111011110111011110111011110111011110111011110111011110111011110111011110111011110111011110111011110111011110100101111 #
b111011110111011110111011110111011110111011110111011110111011110111011110111011110111011110111011110111011110111011110111011110111011110100101111 !
#98
b100101111 &
b111011110111011110111011110111011110111011110111011110111011110111011110111011110111011110111011110111011110111011110111011110100101111100101111 #
b111011110111011110111011110111011110111011110111011110111011110111011110111011110111011110111011110111011110111011110111011110100101111100101111 !
#99
b100101111 %
b111011110111011110111011110111011110111011110111011110111011110111011110111011110111011110111011110111011110111011110100101111100101111100101111 #
b111011110111011110111011110111011110111011110111011110111011110111011110111011110111011110111011110111011110111011110100101111100101111100101111 !
#100
b100101111 $
b111011110111011110111011110111011110111011110111011110111011110111011110111011110111011110111011110111011110100101111100101111100101111100101111 #
b111011110111011110111011110111011110111011110111011110111011110111011110111011110111011110111011110111011110100101111100101111100101111100101111 !
#101
b111011110111011110111011110111011110111011110111011110111011110111011110111011110111011110111011110100101111100101111100101111100101111100101111 #
b111011110111011110111011110111011110111011110111011110111011110111011110111011110111011110111011110100101111100101111100101111100101111100101111 !
#102
b111011110111011110111011110111011110111011110111011110111011110111011110111011110111011110100101111100101111100101111100101111100101111100101111 #
b111011110111011110111011110111011110111011110111011110111011110111011110111011110111011110100101111100101111100101111100101111100101111100101111 !
#103
b111011110111011110111011110111011110111011110111011110111011110111011110111011110100101111100101111100101111100101111100101111100101111100101111 #
b111011110111011110111011110111011110111011110111011110111011110111011110111011110100101111100101111100101111100101111100101111100101111100101111 !
#104
b111011110111011110111011110111011110111011110111011110111011110111011110100101111100101111100101111100101111100101111100101111100101111100101111 #
b111011110111011110111011110111011110111011110111011110111011110111011110100101111100101111100101111100101111100101111100101111100101111100101111 !
#105
b111011110111011110111011110111011110111011110111011110111011110100101111100101111100101111100101111100101111100101111100101111100101111100101111 #
b111011110111011110111011110111011110111011110111011110111011110100101111100101111100101111100101111100101111100101111100101111100101111100101111 !
#106
b111011110111011110111011110111011110111011110111011110100101111100101111100101111100101111100101111100101111100101111100101111100101111100101111 #
b111011110111011110111011110111011110111011110111011110100101111100101111100101111100101111100101111100101111100101111100101111100101111100101111 !
#107
b111011110111011110111011110111011110111011110100101111100101111100101111100101111100101111100101111100101111100101111100101111100101111100101111 #
b111011110111011110111011110111011110111011110100101111100101111100101111100101111100101111100101111100101111100101111100101111100101111100101111 !
#108
b111011110111011110111011110111011110100101111100101111100101111100101111100101111100101111100101111100101111100101111100101111100101111100101111 #
b111011110111011110111011110111011110100101111100101111100101111100101111100101111100101111100101111100101111100101111100101111100101111100101111 !
#109
b111011110111011110111011110100101111100101111100101111100101111100101111100101111100101111100101111100101111100101111100101111100101111100101111 #
b111011110111011110111011110100101111100101111100101111100101111100101111100101111100101111100101111100101111100101111100101111100101111100101111 !
#110
b111011110111011110100101111100101111100101111100101111100101111100101111100101111100101111100101111100101111100101111100101111100101111100101111 #
b111011110111011110100101111100101111100101111100101111100101111100101111100101111100101111100101111100101111100101111100101111100101111100101111 !
#111
b111011110100101111100101111100101111100101111100101111100101111100101111100101111100101111100101111100101111100101111100101111100101111100101111 #
b111011110100101111100101111100101111100101111100101111100101111100101111100101111100101111100101111100101111100101111100101111100101111100101111 !
#112
b100101111100101111100101111100101111100101111100101111100101111100101111100101111100101111100101111100101111100101111100101111100101111100101111 #
b100101111100101111100101111100101111100101111100101111100101111100101111100101111100101111100101111100101111100101111100101111100101111100101111 !
#113
b111010011 "
b100101111100101111100101111100101111100101111100101111100101111100101111100101111100101111100101111100101111100101111100101111100101111111010011 #
b100101111100101111100101111100101111100101111100101111100101111100101111100101111100101111100101111100101111100101111100101111100101111111010011 !
#114
b111010011 &
b100101111100101111100101111100101111100101111100101111100101111100101111100101111100101111100101111100101111100101111100101111111010011111010011 #
b100101111100101111100101111100101111100101111100101111100101111100101111100101111100101111100101111100101111100101111100101111111010011111010011 !
#115
b111010011 %
b100101111100101111100101111100101111100101111100101111100101111100101111100101111100101111100101111100101111100101111111010011111010011111010011 #
b100101111100101111100101111100101111100101111100101111100101111100101111100101111100101111100101111100101111100101111111010011111010011111010011 !
#116
b111010011 $
b100101111100101111100101111100101111100101111100101111100101111100101111100101111100101111100101111100101111111010011111010011111010011111010011 #
b100101111100101111100101111100101111100101111100101111100101111100101111100101111100101111100101111100101111111010011111010011111010011111010011 !
#117
b100101111100101111100101111100101111100101111100101111100101111100101111100101111100101111100101111111010011111010011111010011111010011111010011 #
b100101111100101111100101111100101111100101111100101111100101111100101111100101111100101111100101111111010011111010011111010011111010011111010011 !
#118
b100101111100101111100101111100101111100101111100101111100101111100101111100101111100101111111010011111010011111010011111010011111010011111010011 #
b100101111100101111100101111100101111100101111100101111100101111100101111100101111100101111111010011111010011111010011111010011111010011111010011 !
#119
b100101111100101111100101111100101111100101111100101111100101111100101111100101111111010011111010011111010011111010011111010011111010011111010011 #
b100101111100101111100101111100101111100101111100101111100101111100101111100101111111010011111010011111010011111010011111010011111010011111010011 !
#120
b100101111100101111100101111100101111100101111100101111100101111100101111111010011111010011111010011111010011111010011111010011111010011111010011 #
b100101111100101111100101111100101111100101111100101111100101111100101111111010011111010011111010011111010011111010011111010011111010011111010011 !
#121
b100101111100101111100101111100101111100101111100101111100101111111010011111010011111010011111010011111010011111010011111010011111010011111010011 #
b100101111100101111100101111100101111100101111100101111100101111111010011111010011111010011111010011111010011111010011111010011111010011111010011 !
#122
b100101111100101111100101111100101111100101111100101111111010011111010011111010011111010011111010011111010011111010011111010011111010011111010011 #
b100101111100101111100101111100101111100101111100101111111010011111010011111010011111010011111010011111010011111010011111010011111010011111010011 !
#123
b100101111100101111100101111100101111100101111111010011111010011111010011111010011111010011111010011111010011111010011111010011111010011111010011 #
b100101111100101111100101111100101111100101111111010011111010011111010011111010011111010011111010011111010011111010011111010011111010011111010011 !
#124
b100101111100101111100101111100101111111010011111010011111010011111010011111010011111010011111010011111010011111010011111010011111010011111010011 #
b100101111100101111100101111100101111111010011111010011111010011111010011111010011111010011111010011111010011111010011111010011111010011111010011 !
#125
b100101111100101111100101111111010011111010011111010011111010011111010011111010011111010011111010011111010011111010011111010011111010011111010011 #
b100101111100101111100101111111010011111010011111010011111010011111010011111010011111010011111010011111010011111010011111010011111010011111010011 !
#126
b100101111100101111111010011111010011111010011111010011111010011111010011111010011111010011111010011111010011111010011111010011111010011111010011 #
b100101111100101111111010011111010011111010011111010011111010011111010011111010011111010011111010011111010011111010011111010011111010011111010011 !
#127
b100101111111010011111010011111010011111010011111010011111010011111010011111010011111010011111010011111010011111010011111010011111010011111010011 #
b100101111111010011111010011111010011111010011111010011111010011111010011111010011111010011111010011111010011111010011111010011111010011111010011 !
#128
b111010011111010011111010011111010011111010011111010011111010011111010011111010011111010011111010011111010011111010011111010011111010011111010011 #
b111010011111010011111010011111010011111010011111010011111010011111010011111010011111010011111010011111010011111010011111010011111010011111010011 !
#129
b000101011 "
b111010011111010011111010011111010011111010011111010011111010011111010011111010011111010011111010011111010011111010011111010011111010011000101011 #
b111010011111010011111010011111010011111010011111010011111010011111010011111010011111010011111010011111010011111010011111010011111010011000101011 !
#130
b000101011 &
b111010011111010011111010011111010011111010011111010011111010011111010011111010011111010011111010011111010011111010011111010011000101011000101011 #
b111010011111010011111010011111010011111010011111010011111010011111010011111010011111010011111010011111010011111010011111010011000101011000101011 !
#131
b000101011 %
b111010011111010011111010011111010011111010011111010011111010011111010011111010011111010011111010011111010011111010011000101011000101011000101011 #
b111010011111010011111010011111010011111010011111010011111010011111010011111010011111010011111010011111010011111010011000101011000101011000101011 !
#132
b000101011 $
b111010011111010011111010011111010011111010011111010011111010011111010011111010011111010011111010011111010011000101011000101011000101011000101011 #
b111010011111010011111010011111010011111010011111010011111010011111010011111010011111010011111010011111010011000101011000101011000101011000101011 !
#133
b111010011111010011111010011111010011111010011111010011111010011111010011111010011111010011111010011000101011000101011000101011000101011000101011 #
b111010011111010011111010011111010011111010011111010011111010011111010011111010011111010011111010011000101011000101011000101011000101011000101011 !
#134
b111010011111010011111010011111010011111010011111010011111010011111010011111010011111010011000101011000101011000101011000101011000101011000101011 #
b111010011111010011111010011111010011111010011111010011111010011111010011111010011111010011000101011000101011000101011000101011000101011000101011 !
