parallel_jpeg/test_flatten.1607383835.61.vcd
$date
    Mon Dec  7 16:30:23 2020
$end
$version
    MyHDL 0.11
$end
$timescale
    1ns
$end

$scope module test_flatten $end
$var reg 144 ! flat $end
$scope module m_flatten0 $end
$var reg 144 ! flat $end
$var reg 9 " mcol $end
$var reg 144 # flat_i $end
$scope module mrow $end
$var reg 9 $ mrow(0) $end
$var reg 9 % mrow(1) $end
$var reg 9 & mrow(2) $end
$var reg 9 " mrow(3) $end
$upscope $end
$upscope $end
$upscope $end

$enddefinitions $end
$dumpvars
b000000000000000000000000000000000000000000000000000000000000000000000000000000000000000000000000000000000000000000000000000000000000000000000000 !
b000000000 "
b000000000000000000000000000000000000000000000000000000000000000000000000000000000000000000000000000000000000000000000000000000000000000000000000 #
b000000000 $
b000000000 %
b000000000 &
$end
#1
b000111101 "
b000000000000000000000000000000000000000000000000000000000000000000000000000000000000000000000000000000000000000000000000000000000000000000111101 #
b000000000000000000000000000000000000000000000000000000000000000000000000000000000000000000000000000000000000000000000000000000000000000000111101 !
#2
b000111101 &
b000000000000000000000000000000000000000000000000000000000000000000000000000000000000000000000000000000000000000000000000000000000111101000111101 #
b000000000000000000000000000000000000000000000000000000000000000000000000000000000000000000000000000000000000000000000000000000000111101000111101 !
#3
b000111101 %
b000000000000000000000000000000000000000000000000000000000000000000000000000000000000000000000000000000000000000000000000111101000111101000111101 #
b000000000000000000000000000000000000000000000000000000000000000000000000000000000000000000000000000000000000000000000000111101000111101000111101 !
#4
b000111101 $
b000000000000000000000000000000000000000000000000000000000000000000000000000000000000000000000000000000000000000111101000111101000111101000111101 #
b000000000000000000000000000000000000000000000000000000000000000000000000000000000000000000000000000000000000000111101000111101000111101000111101 !
#5
b000000000000000000000000000000000000000000000000000000000000000000000000000000000000000000000000000000111101000111101000111101000111101000111101 #
b000000000000000000000000000000000000000000000000000000000000000000000000000000000000000000000000000000111101000111101000111101000111101000111101 !
#6
b000000000000000000000000000000000000000000000000000000000000000000000000000000000000000000000111101000111101000111101000111101000111101000111101 #
b000000000000000000000000000000000000000000000000000000000000000000000000000000000000000000000111101000111101000111101000111101000111101000111101 !
#7
b000000000000000000000000000000000000000000000000000000000000000000000000000000000000111101000111101000111101000111101000111101000111101000111101 #
b000000000000000000000000000000000000000000000000000000000000000000000000000000000000111101000111101000111101000111101000111101000111101000111101 !
#8
b000000000000000000000000000000000000000000000000000000000000000000000000000111101000111101000111101000111101000111101000111101000111101000111101 #
b000000000000000000000000000000000000000000000000000000000000000000000000000111101000111101000111101000111101000111101000111101000111101000111101 !
#9
b000000000000000000000000000000000000000000000000000000000000000000111101000111101000111101000111101000111101000111101000111101000111101000111101 #
b000000000000000000000000000000000000000000000000000000000000000000111101000111101000111101000111101000111101000111101000111101000111101000111101 !
#10
b000000000000000000000000000000000000000000000000000000000111101000111101000111101000111101000111101000111101000111101000111101000111101000111101 #
b000000000000000000000000000000000000000000000000000000000111101000111101000111101000111101000111101000111101000111101000111101000111101000111101 !
#11
b000000000000000000000000000000000000000000000000111101000111101000111101000111101000111101000111101000111101000111101000111101000111101000111101 #
b000000000000000000000000000000000000000000000000111101000111101000111101000111101000111101000111101000111101000111101000111101000111101000111101 !
#12
b000000000000000000000000000000000000000111101000111101000111101000111101000111101000111101000111101000111101000111101000111101000111101000111101 #
b000000000000000000000000000000000000000111101000111101000111101000111101000111101000111101000111101000111101000111101000111101000111101000111101 !
#13
b000000000000000000000000000000111101000111101000111101000111101000111101000111101000111101000111101000111101000111101000111101000111101000111101 #
b000000000000000000000000000000111101000111101000111101000111101000111101000111101000111101000111101000111101000111101000111101000111101000111101 !
#14
b000000000000000000000111101000111101000111101000111101000111101000111101000111101000111101000111101000111101000111101000111101000111101000111101 #
b000000000000000000000111101000111101000111101000111101000111101000111101000111101000111101000111101000111101000111101000111101000111101000111101 !
#15
b000000000000111101000111101000111101000111101000111101000111101000111101000111101000111101000111101000111101000111101000111101000111101000111101 #
b000000000000111101000111101000111101000111101000111101000111101000111101000111101000111101000111101000111101000111101000111101000111101000111101 !
#16
b000111101000111101000111101000111101000111101000111101000111101000111101000111101000111101000111101000111101000111101000111101000111101000111101 #
b000111101000111101000111101000111101000111101000111101000111101000111101000111101000111101000111101000111101000111101000111101000111101000111101 !
#17
b100011111 "
b000111101000111101000111101000111101000111101000111101000111101000111101000111101000111101000111101000111101000111101000111101000111101100011111 #
b000111101000111101000111101000111101000111101000111101000111101000111101000111101000111101000111101000111101000111101000111101000111101100011111 !
#18
b100011111 &
b000111101000111101000111101000111101000111101000111101000111101000111101000111101000111101000111101000111101000111101000111101100011111100011111 #
b000111101000111101000111101000111101000111101000111101000111101000111101000111101000111101000111101000111101000111101000111101100011111100011111 !
#19
b100011111 %
b000111101000111101000111101000111101000111101000111101000111101000111101000111101000111101000111101000111101000111101100011111100011111100011111 #
b000111101000111101000111101000111101000111101000111101000111101000111101000111101000111101000111101000111101000111101100011111100011111100011111 !
#20
b100011111 $
b000111101000111101000111101000111101000111101000111101000111101000111101000111101000111101000111101000111101100011111100011111100011111100011111 #
b000111101000111101000111101000111101000111101000111101000111101000111101000111101000111101000111101000111101100011111100011111100011111100011111 !
#21
b000111101000111101000111101000111101000111101000111101000111101000111101000111101000111101000111101100011111100011111100011111100011111100011111 #
b000111101000111101000111101000111101000111101000111101000111101000111101000111101000111101000111101100011111100011111100011111100011111100011111 !
#22
b000111101000111101000111101000111101000111101000111101000111101000111101000111101000111101100011111100011111100011111100011111100011111100011111 #
b000111101000111101000111101000111101000111101000111101000111101000111101000111101000111101100011111100011111100011111100011111100011111100011111 !
#23
b000111101000111101000111101000111101000111101000111101000111101000111101000111101100011111100011111100011111100011111100011111100011111100011111 #
b000111101000111101000111101000111101000111101000111101000111101000111101000111101100011111100011111100011111100011111100011111100011111100011111 !
#24
b000111101000111101000111101000111101000111101000111101000111101000111101100011111100011111100011111100011111100011111100011111100011111100011111 #
b000111101000111101000111101000111101000111101000111101000111101000111101100011111100011111100011111100011111100011111100011111100011111100011111 !
#25
b000111101000111101000111101000111101000111101000111101000111101100011111100011111100011111100011111100011111100011111100011111100011111100011111 #
b000111101000111101000111101000111101000111101000111101000111101100011111100011111100011111100011111100011111100011111100011111100011111100011111 !
#26
b000111101000111101000111101000111101000111101000111101100011111100011111100011111100011111100011111100011111100011111100011111100011111100011111 #
b000111101000111101000111101000111101000111101000111101100011111100011111100011111100011111100011111100011111100011111100011111100011111100011111 !
#27
b000111101000111101000111101000111101000111101100011111100011111100011111100011111100011111100011111100011111100011111100011111100011111100011111 #
b000111101000111101000111101000111101000111101100011111100011111100011111100011111100011111100011111100011111100011111100011111100011111100011111 !
#28
b000111101000111101000111101000111101100011111100011111100011111100011111100011111100011111100011111100011111100011111100011111100011111100011111 #
b000111101000111101000111101000111101100011111100011111100011111100011111100011111100011111100011111100011111100011111100011111100011111100011111 !
#29
b000111101000111101000111101100011111100011111100011111100011111100011111100011111100011111100011111100011111100011111100011111100011111100011111 #
b000111101000111101000111101100011111100011111100011111100011111100011111100011111100011111100011111100011111100011111100011111100011111100011111 !
#30
b000111101000111101100011111100011111100011111100011111100011111100011111100011111100011111100011111100011111100011111100011111100011111100011111 #
b000111101000111101100011111100011111100011111100011111100011111100011111100011111100011111100011111100011111100011111100011111100011111100011111 !
#31
b000111101100011111100011111100011111100011111100011111100011111100011111100011111100011111100011111100011111100011111100011111100011111100011111 #
b000111101100011111100011111100011111100011111100011111100011111100011111100011111100011111100011111100011111100011111100011111100011111100011111 !
#32
b100011111100011111100011111100011111100011111100011111100011111100011111100011111100011111100011111100011111100011111100011111100011111100011111 #
b100011111100011111100011111100011111100011111100011111100011111100011111100011111100011111100011111100011111100011111100011111100011111100011111 !
#33
b000010100 "
b100011111100011111100011111100011111100011111100011111100011111100011111100011111100011111100011111100011111100011111100011111100011111000010100 #
b100011111100011111100011111100011111100011111100011111100011111100011111100011111100011111100011111100011111100011111100011111100011111000010100 !
#34
b000010100 &
b100011111100011111100011111100011111100011111100011111100011111100011111100011111100011111100011111100011111100011111100011111000010100000010100 #
b100011111100011111100011111100011111100011111100011111100011111100011111100011111100011111100011111100011111100011111100011111000010100000010100 !
#35
b000010100 %
b100011111100011111100011111100011111100011111100011111100011111100011111100011111100011111100011111100011111100011111000010100000010100000010100 #
b100011111100011111100011111100011111100011111100011111100011111100011111100011111100011111100011111100011111100011111000010100000010100000010100 !
#36
b000010100 $
b100011111100011111100011111100011111100011111100011111100011111100011111100011111100011111100011111100011111000010100000010100000010100000010100 #
b100011111100011111100011111100011111100011111100011111100011111100011111100011111100011111100011111100011111000010100000010100000010100000010100 !
#37
b100011111100011111100011111100011111100011111100011111100011111100011111100011111100011111100011111000010100000010100000010100000010100000010100 #
b100011111100011111100011111100011111100011111100011111100011111100011111100011111100011111100011111000010100000010100000010100000010100000010100 !
#38
b100011111100011111100011111100011111100011111100011111100011111100011111100011111100011111000010100000010100000010100000010100000010100000010100 #
b100011111100011111100011111100011111100011111100011111100011111100011111100011111100011111000010100000010100000010100000010100000010100000010100 !
#39
b100011111100011111100011111100011111100011111100011111100011111100011111100011111000010100000010100000010100000010100000010100000010100000010100 #
b100011111100011111100011111100011111100011111100011111100011111100011111100011111000010100000010100000010100000010100000010100000010100000010100 !
#40
b100011111100011111100011111100011111100011111100011111100011111100011111000010100000010100000010100000010100000010100000010100000010100000010100 #
b100011111100011111100011111100011111100011111100011111100011111100011111000010100000010100000010100000010100000010100000010100000010100000010100 !
#41
b100011111100011111100011111100011111100011111100011111100011111000010100000010100000010100000010100000010100000010100000010100000010100000010100 #
b100011111100011111100011111100011111100011111100011111100011111000010100000010100000010100000010100000010100000010100000010100000010100000010100 !
#42
b100011111100011111100011111100011111100011111100011111000010100000010100000010100000010100000010100000010100000010100000010100000010100000010100 #
b100011111100011111100011111100011111100011111100011111000010100000010100000010100000010100000010100000010100000010100000010100000010100000010100 !
#43
b100011111100011111100011111100011111100011111000010100000010100000010100000010100000010100000010100000010100000010100000010100000010100000010100 #
b100011111100011111100011111100011111100011111000010100000010100000010100000010100000010100000010100000010100000010100000010100000010100000010100 !
#44
b100011111100011111100011111100011111000010100000010100000010100000010100000010100000010100000010100000010100000010100000010100000010100000010100 #
b100011111100011111100011111100011111000010100000010100000010100000010100000010100000010100000010100000010100000010100000010100000010100000010100 !
#45
b100011111100011111100011111000010100000010100000010100000010100000010100000010100000010100000010100000010100000010100000010100000010100000010100 #
b100011111100011111100011111000010100000010100000010100000010100000010100000010100000010100000010100000010100000010100000010100000010100000010100 !
#46
b100011111100011111000010100000010100000010100000010100000010100000010100000010100000010100000010100000010100000010100000010100000010100000010100 #
b100011111100011111000010100000010100000010100000010100000010100000010100000010100000010100000010100000010100000010100000010100000010100000010100 !
#47
b100011111000010100000010100000010100000010100000010100000010100000010100000010100000010100000010100000010100000010100000010100000010100000010100 #
b100011111000010100000010100000010100000010100000010100000010100000010100000010100000010100000010100000010100000010100000010100000010100000010100 !
#48
b000010100000010100000010100000010100000010100000010100000010100000010100000010100000010100000010100000010100000010100000010100000010100000010100 #
b000010100000010100000010100000010100000010100000010100000010100000010100000010100000010100000010100000010100000010100000010100000010100000010100 !
#49
b111101001 "
b000010100000010100000010100000010100000010100000010100000010100000010100000010100000010100000010100000010100000010100000010100000010100111101001 #
b000010100000010100000010100000010100000010100000010100000010100000010100000010100000010100000010100000010100000010100000010100000010100111101001 !
#50
b111101001 &
b000010100000010100000010100000010100000010100000010100000010100000010100000010100000010100000010100000010100000010100000010100111101001111101001 #
b000010100000010100000010100000010100000010100000010100000010100000010100000010100000010100000010100000010100000010100000010100111101001111101001 !
#51
b111101001 %
b000010100000010100000010100000010100000010100000010100000010100000010100000010100000010100000010100000010100000010100111101001111101001111101001 #
b000010100000010100000010100000010100000010100000010100000010100000010100000010100000010100000010100000010100000010100111101001111101001111101001 !
#52
b111101001 $
b000010100000010100000010100000010100000010100000010100000010100000010100000010100000010100000010100000010100111101001111101001111101001111101001 #
b000010100000010100000010100000010100000010100000010100000010100000010100000010100000010100000010100000010100111101001111101001111101001111101001 !
#53
b000010100000010100000010100000010100000010100000010100000010100000010100000010100000010100000010100111101001111101001111101001111101001111101001 #
b000010100000010100000010100000010100000010100000010100000010100000010100000010100000010100000010100111101001111101001111101001111101001111101001 !
#54
b000010100000010100000010100000010100000010100000010100000010100000010100000010100000010100111101001111101001111101001111101001111101001111101001 #
b000010100000010100000010100000010100000010100000010100000010100000010100000010100000010100111101001111101001111101001111101001111101001111101001 !
#55
b000010100000010100000010100000010100000010100000010100000010100000010100000010100111101001111101001111101001111101001111101001111101001111101001 #
b000010100000010100000010100000010100000010100000010100000010100000010100000010100111101001111101001111101001111101001111101001111101001111101001 !
#56
b000010100000010100000010100000010100000010100000010100000010100000010100111101001111101001111101001111101001111101001111101001111101001111101001 #
b000010100000010100000010100000010100000010100000010100000010100000010100111101001111101001111101001111101001111101001111101001111101001111101001 !
#57
b000010100000010100000010100000010100000010100000010100000010100111101001111101001111101001111101001111101001111101001111101001111101001111101001 #
b000010100000010100000010100000010100000010100000010100000010100111101001111101001111101001111101001111101001111101001111101001111101001111101001 !
#58
b000010100000010100000010100000010100000010100000010100111101001111101001111101001111101001111101001111101001111101001111101001111101001111101001 #
b000010100000010100000010100000010100000010100000010100111101001111101001111101001111101001111101001111101001111101001111101001111101001111101001 !
#59
b000010100000010100000010100000010100000010100111101001111101001111101001111101001111101001111101001111101001111101001111101001111101001111101001 #
b000010100000010100000010100000010100000010100111101001111101001111101001111101001111101001111101001111101001111101001111101001111101001111101001 !
#60
b000010100000010100000010100000010100111101001111101001111101001111101001111101001111101001111101001111101001111101001111101001111101001111101001 #
b000010100000010100000010100000010100111101001111101001111101001111101001111101001111101001111101001111101001111101001111101001111101001111101001 !
#61
b000010100000010100000010100111101001111101001111101001111101001111101001111101001111101001111101001111101001111101001111101001111101001111101001 #
b000010100000010100000010100111101001111101001111101001111101001111101001111101001111101001111101001111101001111101001111101001111101001111101001 !
#62
b000010100000010100111101001111101001111101001111101001111101001111101001111101001111101001111101001111101001111101001111101001111101001111101001 #
b000010100000010100111101001111101001111101001111101001111101001111101001111101001111101001111101001111101001111101001111101001111101001111101001 !
#63
b000010100111101001111101001111101001111101001111101001111101001111101001111101001111101001111101001111101001111101001111101001111101001111101001 #
b000010100111101001111101001111101001111101001111101001111101001111101001111101001111101001111101001111101001111101001111101001111101001111101001 !
#64
b111101001111101001111101001111101001111101001111101001111101001111101001111101001111101001111101001111101001111101001111101001111101001111101001 #
b111101001111101001111101001111101001111101001111101001111101001111101001111101001111101001111101001111101001111101001111101001111101001111101001 !
#65
b011111010 "
b111101001111101001111101001111101001111101001111101001111101001111101001111101001111101001111101001111101001111101001111101001111101001011111010 #
b111101001111101001111101001111101001111101001111101001111101001111101001111101001111101001111101001111101001111101001111101001111101001011111010 !
#66
b011111010 &
b111101001111101001111101001111101001111101001111101001111101001111101001111101001111101001111101001111101001111101001111101001011111010011111010 #
b111101001111101001111101001111101001111101001111101001111101001111101001111101001111101001111101001111101001111101001111101001011111010011111010 !
#67
b011111010 %
b111101001111101001111101001111101001111101001111101001111101001111101001111101001111101001111101001111101001111101001011111010011111010011111010 #
b111101001111101001111101001111101001111101001111101001111101001111101001111101001111101001111101001111101001111101001011111010011111010011111010 !
#68
b011111010 $
b111101001111101001111101001111101001111101001111101001111101001111101001111101001111101001111101001111101001011111010011111010011111010011111010 #
b111101001111101001111101001111101001111101001111101001111101001111101001111101001111101001111101001111101001011111010011111010011111010011111010 !
#69
b111101001111101001111101001111101001111101001111101001111101001111101001111101001111101001111101001011111010011111010011111010011111010011111010 #
b111101001111101001111101001111101001111101001111101001111101001111101001111101001111101001111101001011111010011111010011111010011111010011111010 !
#70
b111101001111101001111101001111101001111101001111101001111101001111101001111101001111101001011111010011111010011111010011111010011111010011111010 #
b111101001111101001111101001111101001111101001111101001111101001111101001111101001111101001011111010011111010011111010011111010011111010011111010 !
#71
b111101001111101001111101001111101001111101001111101001111101001111101001111101001011111010011111010011111010011111010011111010011111010011111010 #
b111101001111101001111101001111101001111101001111101001111101001111101001111101001011111010011111010011111010011111010011111010011111010011111010 !
#72
b111101001111101001111101001111101001111101001111101001111101001111101001011111010011111010011111010011111010011111010011111010011111010011111010 #
b111101001111101001111101001111101001111101001111101001111101001111101001011111010011111010011111010011111010011111010011111010011111010011111010 !
#73
b111101001111101001111101001111101001111101001111101001111101001011111010011111010011111010011111010011111010011111010011111010011111010011111010 #
b111101001111101001111101001111101001111101001111101001111101001011111010011111010011111010011111010011111010011111010011111010011111010011111010 !
#74
b111101001111101001111101001111101001111101001111101001011111010011111010011111010011111010011111010011111010011111010011111010011111010011111010 #
b111101001111101001111101001111101001111101001111101001011111010011111010011111010011111010011111010011111010011111010011111010011111010011111010 !
#75
b111101001111101001111101001111101001111101001011111010011111010011111010011111010011111010011111010011111010011111010011111010011111010011111010 #
b111101001111101001111101001111101001111101001011111010011111010011111010011111010011111010011111010011111010011111010011111010011111010011111010 !
#76
b111101001111101001111101001111101001011111010011111010011111010011111010011111010011111010011111010011111010011111010011111010011111010011111010 #
b111101001111101001111101001111101001011111010011111010011111010011111010011111010011111010011111010011111010011111010011111010011111010011111010 !
#77
b111101001111101001111101001011111010011111010011111010011111010011111010011111010011111010011111010011111010011111010011111010011111010011111010 #
b111101001111101001111101001011111010011111010011111010011111010011111010011111010011111010011111010011111010011111010011111010011111010011111010 !
#78
b111101001111101001011111010011111010011111010011111010011111010011111010011111010011111010011111010011111010011111010011111010011111010011111010 #
b111101001111101001011111010011111010011111010011111010011111010011111010011111010011111010011111010011111010011111010011111010011111010011111010 !
#79
b111101001011111010011111010011111010011111010011111010011111010011111010011111010011111010011111010011111010011111010011111010011111010011111010 #
b111101001011111010011111010011111010011111010011111010011111010011111010011111010011111010011111010011111010011111010011111010011111010011111010 !
#80
b011111010011111010011111010011111010011111010011111010011111010011111010011111010011111010011111010011111010011111010011111010011111010011111010 #
b011111010011111010011111010011111010011111010011111010011111010011111010011111010011111010011111010011111010011111010011111010011111010011111010 !
#81
b110010010 "
b011111010011111010011111010011111010011111010011111010011111010011111010011111010011111010011111010011111010011111010011111010011111010110010010 #
b011111010011111010011111010011111010011111010011111010011111010011111010011111010011111010011111010011111010011111010011111010011111010110010010 !
#82
b110010010 &
b011111010011111010011111010011111010011111010011111010011111010011111010011111010011111010011111010011111010011111010011111010110010010110010010 #
b011111010011111010011111010011111010011111010011111010011111010011111010011111010011111010011111010011111010011111010011111010110010010110010010 !
#83
b110010010 %
b011111010011111010011111010011111010011111010011111010011111010011111010011111010011111010011111010011111010011111010110010010110010010110010010 #
b011111010011111010011111010011111010011111010011111010011111010011111010011111010011111010011111010011111010011111010110010010110010010110010010 !
#84
b110010010 $
b011111010011111010011111010011111010011111010011111010011111010011111010011111010011111010011111010011111010110010010110010010110010010110010010 #
b011111010011111010011111010011111010011111010011111010011111010011111010011111010011111010011111010011111010110010010110010010110010010110010010 !
#85
b011111010011111010011111010011111010011111010011111010011111010011111010011111010011111010011111010110010010110010010110010010110010010110010010 #
b011111010011111010011111010011111010011111010011111010011111010011111010011111010011111010011111010110010010110010010110010010110010010110010010 !
#86
b011111010011111010011111010011111010011111010011111010011111010011111010011111010011111010110010010110010010110010010110010010110010010110010010 #
b011111010011111010011111010011111010011111010011111010011111010011111010011111010011111010110010010110010010110010010110010010110010010110010010 !
#87
b011111010011111010011111010011111010011111010011111010011111010011111010011111010110010010110010010110010010110010010110010010110010010110010010 #
b011111010011111010011111010011111010011111010011111010011111010011111010011111010110010010110010010110010010110010010110010010110010010110010010 !
#88
b011111010011111010011111010011111010011111010011111010011111010011111010110010010110010010110010010110010010110010010110010010110010010110010010 #
b011111010011111010011111010011111010011111010011111010011111010011111010110010010110010010110010010110010010110010010110010010110010010110010010 !
#89
b011111010011111010011111010011111010011111010011111010011111010110010010110010010110010010110010010110010010110010010110010010110010010110010010 #
b011111010011111010011111010011111010011111010011111010011111010110010010110010010110010010110010010110010010110010010110010010110010010110010010 !
#90
b011111010011111010011111010011111010011111010011111010110010010110010010110010010110010010110010010110010010110010010110010010110010010110010010 #
b011111010011111010011111010011111010011111010011111010110010010110010010110010010110010010110010010110010010110010010110010010110010010110010010 !
#91
b011111010011111010011111010011111010011111010110010010110010010110010010110010010110010010110010010110010010110010010110010010110010010110010010 #
b011111010011111010011111010011111010011111010110010010110010010110010010110010010110010010110010010110010010110010010110010010110010010110010010 !
#92
b011111010011111010011111010011111010110010010110010010110010010110010010110010010110010010110010010110010010110010010110010010110010010110010010 #
b011111010011111010011111010011111010110010010110010010110010010110010010110010010110010010110010010110010010110010010110010010110010010110010010 !
#93
b011111010011111010011111010110010010110010010110010010110010010110010010110010010110010010110010010110010010110010010110010010110010010110010010 #
b011111010011111010011111010110010010110010010110010010110010010110010010110010010110010010110010010110010010110010010110010010110010010110010010 !
#94
b011111010011111010110010010110010010110010010110010010110010010110010010110010010110010010110010010110010010110010010110010010110010010110010010 #
b011111010011111010110010010110010010110010010110010010110010010110010010110010010110010010110010010110010010110010010110010010110010010110010010 !
#95
b011111010110010010110010010110010010110010010110010010110010010110010010110010010110010010110010010110010010110010010110010010110010010110010010 #
b011111010110010010110010010110010010110010010110010010110010010110010010110010010110010010110010010110010010110010010110010010110010010110010010 !
#96
b110010010110010010110010010110010010110010010110010010110010010110010010110010010110010010110010010110010010110010010110010010110010010110010010 #
b110010010110010010110010010110010010110010010110010010110010010110010010110010010110010010110010010110010010110010010110010010110010010110010010 !
#97
b110110100 "
b110010010110010010110010010110010010110010010110010010110010010110010010110010010110010010110010010110010010110010010110010010110010010110110100 #
b110010010110010010110010010110010010110010010110010010110010010110010010110010010110010010110010010110010010110010010110010010110010010110110100 !
#98
b110110100 &
b110010010110010010110010010110010010110010010110010010110010010110010010110010010110010010110010010110010010110010010110010010110110100110110100 #
b110010010110010010110010010110010010110010010110010010110010010110010010110010010110010010110010010110010010110010010110010010110110100110110100 !
#99
b110110100 %
b110010010110010010110010010110010010110010010110010010110010010110010010110010010110010010110010010110010010110010010110110100110110100110110100 #
b110010010110010010110010010110010010110010010110010010110010010110010010110010010110010010110010010110010010110010010110110100110110100110110100 !
#100
b110110100 $
b110010010110010010110010010110010010110010010110010010110010010110010010110010010110010010110010010110010010110110100110110100110110100110110100 #
b110010010110010010110010010110010010110010010110010010110010010110010010110010010110010010110010010110010010110110100110110100110110100110110100 !
#101
b110010010110010010110010010110010010110010010110010010110010010110010010110010010110010010110010010110110100110110100110110100110110100110110100 #
b110010010110010010110010010110010010110010010110010010110010010110010010110010010110010010110010010110110100110110100110110100110110100110110100 !
#102
b110010010110010010110010010110010010110010010110010010110010010110010010110010010110010010110110100110110100110110100110110100110110100110110100 #
b110010010110010010110010010110010010110010010110010010110010010110010010110010010110010010110110100110110100110110100110110100110110100110110100 !
#103
b110010010110010010110010010110010010110010010110010010110010010110010010110010010110110100110110100110110100110110100110110100110110100110110100 #
b110010010110010010110010010110010010110010010110010010110010010110010010110010010110110100110110100110110100110110100110110100110110100110110100 !
#104
b110010010110010010110010010110010010110010010110010010110010010110010010110110100110110100110110100110110100110110100110110100110110100110110100 #
b110010010110010010110010010110010010110010010110010010110010010110010010110110100110110100110110100110110100110110100110110100110110100110110100 !
#105
b110010010110010010110010010110010010110010010110010010110010010110110100110110100110110100110110100110110100110110100110110100110110100110110100 #
b110010010110010010110010010110010010110010010110010010110010010110110100110110100110110100110110100110110100110110100110110100110110100110110100 !
#106
b110010010110010010110010010110010010110010010110010010110110100110110100110110100110110100110110100110110100110110100110110100110110100110110100 #
b110010010110010010110010010110010010110010010110010010110110100110110100110110100110110100110110100110110100110110100110110100110110100110110100 !
#107
b110010010110010010110010010110010010110010010110110100110110100110110100110110100110110100110110100110110100110110100110110100110110100110110100 #
b110010010110010010110010010110010010110010010110110100110110100110110100110110100110110100110110100110110100110110100110110100110110100110110100 !
#108
b110010010110010010110010010110010010110110100110110100110110100110110100110110100110110100110110100110110100110110100110110100110110100110110100 #
b110010010110010010110010010110010010110110100110110100110110100110110100110110100110110100110110100110110100110110100110110100110110100110110100 !
#109
b110010010110010010110010010110110100110110100110110100110110100110110100110110100110110100110110100110110100110110100110110100110110100110110100 #
b110010010110010010110010010110110100110110100110110100110110100110110100110110100110110100110110100110110100110110100110110100110110100110110100 !
#110
b110010010110010010110110100110110100110110100110110100110110100110110100110110100110110100110110100110110100110110100110110100110110100110110100 #
b110010010110010010110110100110110100110110100110110100110110100110110100110110100110110100110110100110110100110110100110110100110110100110110100 !
#111
b110010010110110100110110100110110100110110100110110100110110100110110100110110100110110100110110100110110100110110100110110100110110100110110100 #
b110010010110110100110110100110110100110110100110110100110110100110110100110110100110110100110110100110110100110110100110110100110110100110110100 !
#112
b110110100110110100110110100110110100110110100110110100110110100110110100110110100110110100110110100110110100110110100110110100110110100110110100 #
b110110100110110100110110100110110100110110100110110100110110100110110100110110100110110100110110100110110100110110100110110100110110100110110100 !
#113
b000001001 "
b110110100110110100110110100110110100110110100110110100110110100110110100110110100110110100110110100110110100110110100110110100110110100000001001 #
b110110100110110100110110100110110100110110100110110100110110100110110100110110100110110100110110100110110100110110100110110100110110100000001001 !
#114
b000001001 &
b110110100110110100110110100110110100110110100110110100110110100110110100110110100110110100110110100110110100110110100110110100000001001000001001 #
b110110100110110100110110100110110100110110100110110100110110100110110100110110100110110100110110100110110100110110100110110100000001001000001001 !
#115
b000001001 %
b110110100110110100110110100110110100110110100110110100110110100110110100110110100110110100110110100110110100110110100000001001000001001000001001 #
b110110100110110100110110100110110100110110100110110100110110100110110100110110100110110100110110100110110100110110100000001001000001001000001001 !
#116
b000001001 $
b110110100110110100110110100110110100110110100110110100110110100110110100110110100110110100110110100110110100000001001000001001000001001000001001 #
b110110100110110100110110100110110100110110100110110100110110100110110100110110100110110100110110100110110100000001001000001001000001001000001001 !
#117
b110110100110110100110110100110110100110110100110110100110110100110110100110110100110110100110110100000001001000001001000001001000001001000001001 #
b110110100110110100110110100110110100110110100110110100110110100110110100110110100110110100110110100000001001000001001000001001000001001000001001 !
#118
b110110100110110100110110100110110100110110100110110100110110100110110100110110100110110100000001001000001001000001001000001001000001001000001001 #
b110110100110110100110110100110110100110110100110110100110110100110110100110110100110110100000001001000001001000001001000001001000001001000001001 !
#119
b110110100110110100110110100110110100110110100110110100110110100110110100110110100000001001000001001000001001000001001000001001000001001000001001 #
b110110100110110100110110100110110100110110100110110100110110100110110100110110100000001001000001001000001001000001001000001001000001001000001001 !
#120
b110110100110110100110110100110110100110110100110110100110110100110110100000001001000001001000001001000001001000001001000001001000001001000001001 #
b110110100110110100110110100110110100110110100110110100110110100110110100000001001000001001000001001000001001000001001000001001000001001000001001 !
#121
b110110100110110100110110100110110100110110100110110100110110100000001001000001001000001001000001001000001001000001001000001001000001001000001001 #
b110110100110110100110110100110110100110110100110110100110110100000001001000001001000001001000001001000001001000001001000001001000001001000001001 !
#122
b110110100110110100110110100110110100110110100110110100000001001000001001000001001000001001000001001000001001000001001000001001000001001000001001 #
b110110100110110100110110100110110100110110100110110100000001001000001001000001001000001001000001001000001001000001001000001001000001001000001001 !
#123
b110110100110110100110110100110110100110110100000001001000001001000001001000001001000001001000001001000001001000001001000001001000001001000001001 #
b110110100110110100110110100110110100110110100000001001000001001000001001000001001000001001000001001000001001000001001000001001000001001000001001 !
#124
b110110100110110100110110100110110100000001001000001001000001001000001001000001001000001001000001001000001001000001001000001001000001001000001001 #
b110110100110110100110110100110110100000001001000001001000001001000001001000001001000001001000001001000001001000001001000001001000001001000001001 !
#125
b110110100110110100110110100000001001000001001000001001000001001000001001000001001000001001000001001000001001000001001000001001000001001000001001 #
b110110100110110100110110100000001001000001001000001001000001001000001001000001001000001001000001001000001001000001001000001001000001001000001001 !
#126
b110110100110110100000001001000001001000001001000001001000001001000001001000001001000001001000001001000001001000001001000001001000001001000001001 #
b110110100110110100000001001000001001000001001000001001000001001000001001000001001000001001000001001000001001000001001000001001000001001000001001 !
#127
b110110100000001001000001001000001001000001001000001001000001001000001001000001001000001001000001001000001001000001001000001001000001001000001001 #
b110110100000001001000001001000001001000001001000001001000001001000001001000001001000001001000001001000001001000001001000001001000001001000001001 !
#128
b000001001000001001000001001000001001000001001000001001000001001000001001000001001000001001000001001000001001000001001000001001000001001000001001 #
b000001001000001001000001001000001001000001001000001001000001001000001001000001001000001001000001001000001001000001001000001001000001001000001001 !
#129
b010101001 "
b000001001000001001000001001000001001000001001000001001000001001000001001000001001000001001000001001000001001000001001000001001000001001010101001 #
b000001001000001001000001001000001001000001001000001001000001001000001001000001001000001001000001001000001001000001001000001001000001001010101001 !
#130
b010101001 &
b000001001000001001000001001000001001000001001000001001000001001000001001000001001000001001000001001000001001000001001000001001010101001010101001 #
b000001001000001001000001001000001001000001001000001001000001001000001001000001001000001001000001001000001001000001001000001001010101001010101001 !
#131
b010101001 %
b000001001000001001000001001000001001000001001000001001000001001000001001000001001000001001000001001000001001000001001010101001010101001010101001 #
b000001001000001001000001001000001001000001001000001001000001001000001001000001001000001001000001001000001001000001001010101001010101001010101001 !
#132
b010101001 $
b000001001000001001000001001000001001000001001000001001000001001000001001000001001000001001000001001000001001010101001010101001010101001010101001 #
b000001001000001001000001001000001001000001001000001001000001001000001001000001001000001001000001001000001001010101001010101001010101001010101001 !
#133
b000001001000001001000001001000001001000001001000001001000001001000001001000001001000001001000001001010101001010101001010101001010101001010101001 #
b000001001000001001000001001000001001000001001000001001000001001000001001000001001000001001000001001010101001010101001010101001010101001010101001 !
