parallel_jpeg/test_flatten.1607386398.52.vcd
$date
    Mon Dec  7 17:12:43 2020
$end
$version
    MyHDL 0.11
$end
$timescale
    1ns
$end

$scope module test_flatten $end
$var reg 144 ! flat $end
$scope module m_flatten0 $end
$var reg 144 ! flat $end
$var reg 9 " mcol $end
$var reg 144 # flat_i $end
$scope module mrow $end
$var reg 9 $ mrow(0) $end
$var reg 9 % mrow(1) $end
$var reg 9 & mrow(2) $end
$var reg 9 " mrow(3) $end
$upscope $end
$upscope $end
$upscope $end

$enddefinitions $end
$dumpvars
b000000000000000000000000000000000000000000000000000000000000000000000000000000000000000000000000000000000000000000000000000000000000000000000000 !
b000000000 "
b000000000000000000000000000000000000000000000000000000000000000000000000000000000000000000000000000000000000000000000000000000000000000000000000 #
b000000000 $
b000000000 %
b000000000 &
$end
#1
b111000101 "
b000000000000000000000000000000000000000000000000000000000000000000000000000000000000000000000000000000000000000000000000000000000000000111000101 #
b000000000000000000000000000000000000000000000000000000000000000000000000000000000000000000000000000000000000000000000000000000000000000111000101 !
#2
b111000101 &
b000000000000000000000000000000000000000000000000000000000000000000000000000000000000000000000000000000000000000000000000000000111000101111000101 #
b000000000000000000000000000000000000000000000000000000000000000000000000000000000000000000000000000000000000000000000000000000111000101111000101 !
#3
b111000101 %
b000000000000000000000000000000000000000000000000000000000000000000000000000000000000000000000000000000000000000000000111000101111000101111000101 #
b000000000000000000000000000000000000000000000000000000000000000000000000000000000000000000000000000000000000000000000111000101111000101111000101 !
#4
b111000101 $
b000000000000000000000000000000000000000000000000000000000000000000000000000000000000000000000000000000000000111000101111000101111000101111000101 #
b000000000000000000000000000000000000000000000000000000000000000000000000000000000000000000000000000000000000111000101111000101111000101111000101 !
#5
b000000000000000000000000000000000000000000000000000000000000000000000000000000000000000000000000000111000101111000101111000101111000101111000101 #
b000000000000000000000000000000000000000000000000000000000000000000000000000000000000000000000000000111000101111000101111000101111000101111000101 !
#6
b000000000000000000000000000000000000000000000000000000000000000000000000000000000000000000111000101111000101111000101111000101111000101111000101 #
b000000000000000000000000000000000000000000000000000000000000000000000000000000000000000000111000101111000101111000101111000101111000101111000101 !
#7
b000000000000000000000000000000000000000000000000000000000000000000000000000000000111000101111000101111000101111000101111000101111000101111000101 #
b000000000000000000000000000000000000000000000000000000000000000000000000000000000111000101111000101111000101111000101111000101111000101111000101 !
#8
b000000000000000000000000000000000000000000000000000000000000000000000000111000101111000101111000101111000101111000101111000101111000101111000101 #
b000000000000000000000000000000000000000000000000000000000000000000000000111000101111000101111000101111000101111000101111000101111000101111000101 !
#9
b000000000000000000000000000000000000000000000000000000000000000111000101111000101111000101111000101111000101111000101111000101111000101111000101 #
b000000000000000000000000000000000000000000000000000000000000000111000101111000101111000101111000101111000101111000101111000101111000101111000101 !
#10
b000000000000000000000000000000000000000000000000000000111000101111000101111000101111000101111000101111000101111000101111000101111000101111000101 #
b000000000000000000000000000000000000000000000000000000111000101111000101111000101111000101111000101111000101111000101111000101111000101111000101 !
#11
b000000000000000000000000000000000000000000000111000101111000101111000101111000101111000101111000101111000101111000101111000101111000101111000101 #
b000000000000000000000000000000000000000000000111000101111000101111000101111000101111000101111000101111000101111000101111000101111000101111000101 !
#12
b000000000000000000000000000000000000111000101111000101111000101111000101111000101111000101111000101111000101111000101111000101111000101111000101 #
b000000000000000000000000000000000000111000101111000101111000101111000101111000101111000101111000101111000101111000101111000101111000101111000101 !
#13
b000000000000000000000000000111000101111000101111000101111000101111000101111000101111000101111000101111000101111000101111000101111000101111000101 #
b000000000000000000000000000111000101111000101111000101111000101111000101111000101111000101111000101111000101111000101111000101111000101111000101 !
#14
b000000000000000000111000101111000101111000101111000101111000101111000101111000101111000101111000101111000101111000101111000101111000101111000101 #
b000000000000000000111000101111000101111000101111000101111000101111000101111000101111000101111000101111000101111000101111000101111000101111000101 !
#15
b000000000111000101111000101111000101111000101111000101111000101111000101111000101111000101111000101111000101111000101111000101111000101111000101 #
b000000000111000101111000101111000101111000101111000101111000101111000101111000101111000101111000101111000101111000101111000101111000101111000101 !
#16
b111000101111000101111000101111000101111000101111000101111000101111000101111000101111000101111000101111000101111000101111000101111000101111000101 #
b111000101111000101111000101111000101111000101111000101111000101111000101111000101111000101111000101111000101111000101111000101111000101111000101 !
#17
b010010001 "
b111000101111000101111000101111000101111000101111000101111000101111000101111000101111000101111000101111000101111000101111000101111000101010010001 #
b111000101111000101111000101111000101111000101111000101111000101111000101111000101111000101111000101111000101111000101111000101111000101010010001 !
#18
b010010001 &
b111000101111000101111000101111000101111000101111000101111000101111000101111000101111000101111000101111000101111000101111000101010010001010010001 #
b111000101111000101111000101111000101111000101111000101111000101111000101111000101111000101111000101111000101111000101111000101010010001010010001 !
#19
b010010001 %
b111000101111000101111000101111000101111000101111000101111000101111000101111000101111000101111000101111000101111000101010010001010010001010010001 #
b111000101111000101111000101111000101111000101111000101111000101111000101111000101111000101111000101111000101111000101010010001010010001010010001 !
#20
b010010001 $
b111000101111000101111000101111000101111000101111000101111000101111000101111000101111000101111000101111000101010010001010010001010010001010010001 #
b111000101111000101111000101111000101111000101111000101111000101111000101111000101111000101111000101111000101010010001010010001010010001010010001 !
#21
b111000101111000101111000101111000101111000101111000101111000101111000101111000101111000101111000101010010001010010001010010001010010001010010001 #
b111000101111000101111000101111000101111000101111000101111000101111000101111000101111000101111000101010010001010010001010010001010010001010010001 !
#22
b111000101111000101111000101111000101111000101111000101111000101111000101111000101111000101010010001010010001010010001010010001010010001010010001 #
b111000101111000101111000101111000101111000101111000101111000101111000101111000101111000101010010001010010001010010001010010001010010001010010001 !
#23
b111000101111000101111000101111000101111000101111000101111000101111000101111000101010010001010010001010010001010010001010010001010010001010010001 #
b111000101111000101111000101111000101111000101111000101111000101111000101111000101010010001010010001010010001010010001010010001010010001010010001 !
#24
b111000101111000101111000101111000101111000101111000101111000101111000101010010001010010001010010001010010001010010001010010001010010001010010001 #
b111000101111000101111000101111000101111000101111000101111000101111000101010010001010010001010010001010010001010010001010010001010010001010010001 !
#25
b111000101111000101111000101111000101111000101111000101111000101010010001010010001010010001010010001010010001010010001010010001010010001010010001 #
b111000101111000101111000101111000101111000101111000101111000101010010001010010001010010001010010001010010001010010001010010001010010001010010001 !
#26
b111000101111000101111000101111000101111000101111000101010010001010010001010010001010010001010010001010010001010010001010010001010010001010010001 #
b111000101111000101111000101111000101111000101111000101010010001010010001010010001010010001010010001010010001010010001010010001010010001010010001 !
#27
b111000101111000101111000101111000101111000101010010001010010001010010001010010001010010001010010001010010001010010001010010001010010001010010001 #
b111000101111000101111000101111000101111000101010010001010010001010010001010010001010010001010010001010010001010010001010010001010010001010010001 !
#28
b111000101111000101111000101111000101010010001010010001010010001010010001010010001010010001010010001010010001010010001010010001010010001010010001 #
b111000101111000101111000101111000101010010001010010001010010001010010001010010001010010001010010001010010001010010001010010001010010001010010001 !
#29
b111000101111000101111000101010010001010010001010010001010010001010010001010010001010010001010010001010010001010010001010010001010010001010010001 #
b111000101111000101111000101010010001010010001010010001010010001010010001010010001010010001010010001010010001010010001010010001010010001010010001 !
#30
b111000101111000101010010001010010001010010001010010001010010001010010001010010001010010001010010001010010001010010001010010001010010001010010001 #
b111000101111000101010010001010010001010010001010010001010010001010010001010010001010010001010010001010010001010010001010010001010010001010010001 !
#31
b111000101010010001010010001010010001010010001010010001010010001010010001010010001010010001010010001010010001010010001010010001010010001010010001 #
b111000101010010001010010001010010001010010001010010001010010001010010001010010001010010001010010001010010001010010001010010001010010001010010001 !
#32
b010010001010010001010010001010010001010010001010010001010010001010010001010010001010010001010010001010010001010010001010010001010010001010010001 #
b010010001010010001010010001010010001010010001010010001010010001010010001010010001010010001010010001010010001010010001010010001010010001010010001 !
#33
b011111110 "
b010010001010010001010010001010010001010010001010010001010010001010010001010010001010010001010010001010010001010010001010010001010010001011111110 #
b010010001010010001010010001010010001010010001010010001010010001010010001010010001010010001010010001010010001010010001010010001010010001011111110 !
#34
b011111110 &
b010010001010010001010010001010010001010010001010010001010010001010010001010010001010010001010010001010010001010010001010010001011111110011111110 #
b010010001010010001010010001010010001010010001010010001010010001010010001010010001010010001010010001010010001010010001010010001011111110011111110 !
#35
b011111110 %
b010010001010010001010010001010010001010010001010010001010010001010010001010010001010010001010010001010010001010010001011111110011111110011111110 #
b010010001010010001010010001010010001010010001010010001010010001010010001010010001010010001010010001010010001010010001011111110011111110011111110 !
#36
b011111110 $
b010010001010010001010010001010010001010010001010010001010010001010010001010010001010010001010010001010010001011111110011111110011111110011111110 #
b010010001010010001010010001010010001010010001010010001010010001010010001010010001010010001010010001010010001011111110011111110011111110011111110 !
#37
b010010001010010001010010001010010001010010001010010001010010001010010001010010001010010001010010001011111110011111110011111110011111110011111110 #
b010010001010010001010010001010010001010010001010010001010010001010010001010010001010010001010010001011111110011111110011111110011111110011111110 !
#38
b010010001010010001010010001010010001010010001010010001010010001010010001010010001010010001011111110011111110011111110011111110011111110011111110 #
b010010001010010001010010001010010001010010001010010001010010001010010001010010001010010001011111110011111110011111110011111110011111110011111110 !
#39
b010010001010010001010010001010010001010010001010010001010010001010010001010010001011111110011111110011111110011111110011111110011111110011111110 #
b010010001010010001010010001010010001010010001010010001010010001010010001010010001011111110011111110011111110011111110011111110011111110011111110 !
#40
b010010001010010001010010001010010001010010001010010001010010001010010001011111110011111110011111110011111110011111110011111110011111110011111110 #
b010010001010010001010010001010010001010010001010010001010010001010010001011111110011111110011111110011111110011111110011111110011111110011111110 !
#41
b010010001010010001010010001010010001010010001010010001010010001011111110011111110011111110011111110011111110011111110011111110011111110011111110 #
b010010001010010001010010001010010001010010001010010001010010001011111110011111110011111110011111110011111110011111110011111110011111110011111110 !
#42
b010010001010010001010010001010010001010010001010010001011111110011111110011111110011111110011111110011111110011111110011111110011111110011111110 #
b010010001010010001010010001010010001010010001010010001011111110011111110011111110011111110011111110011111110011111110011111110011111110011111110 !
#43
b010010001010010001010010001010010001010010001011111110011111110011111110011111110011111110011111110011111110011111110011111110011111110011111110 #
b010010001010010001010010001010010001010010001011111110011111110011111110011111110011111110011111110011111110011111110011111110011111110011111110 !
#44
b010010001010010001010010001010010001011111110011111110011111110011111110011111110011111110011111110011111110011111110011111110011111110011111110 #
b010010001010010001010010001010010001011111110011111110011111110011111110011111110011111110011111110011111110011111110011111110011111110011111110 !
#45
b010010001010010001010010001011111110011111110011111110011111110011111110011111110011111110011111110011111110011111110011111110011111110011111110 #
b010010001010010001010010001011111110011111110011111110011111110011111110011111110011111110011111110011111110011111110011111110011111110011111110 !
#46
b010010001010010001011111110011111110011111110011111110011111110011111110011111110011111110011111110011111110011111110011111110011111110011111110 #
b010010001010010001011111110011111110011111110011111110011111110011111110011111110011111110011111110011111110011111110011111110011111110011111110 !
#47
b010010001011111110011111110011111110011111110011111110011111110011111110011111110011111110011111110011111110011111110011111110011111110011111110 #
b010010001011111110011111110011111110011111110011111110011111110011111110011111110011111110011111110011111110011111110011111110011111110011111110 !
#48
b011111110011111110011111110011111110011111110011111110011111110011111110011111110011111110011111110011111110011111110011111110011111110011111110 #
b011111110011111110011111110011111110011111110011111110011111110011111110011111110011111110011111110011111110011111110011111110011111110011111110 !
#49
b011001001 "
b011111110011111110011111110011111110011111110011111110011111110011111110011111110011111110011111110011111110011111110011111110011111110011001001 #
b011111110011111110011111110011111110011111110011111110011111110011111110011111110011111110011111110011111110011111110011111110011111110011001001 !
#50
b011001001 &
b011111110011111110011111110011111110011111110011111110011111110011111110011111110011111110011111110011111110011111110011111110011001001011001001 #
b011111110011111110011111110011111110011111110011111110011111110011111110011111110011111110011111110011111110011111110011111110011001001011001001 !
#51
b011001001 %
b011111110011111110011111110011111110011111110011111110011111110011111110011111110011111110011111110011111110011111110011001001011001001011001001 #
b011111110011111110011111110011111110011111110011111110011111110011111110011111110011111110011111110011111110011111110011001001011001001011001001 !
#52
b011001001 $
b011111110011111110011111110011111110011111110011111110011111110011111110011111110011111110011111110011111110011001001011001001011001001011001001 #
b011111110011111110011111110011111110011111110011111110011111110011111110011111110011111110011111110011111110011001001011001001011001001011001001 !
#53
b011111110011111110011111110011111110011111110011111110011111110011111110011111110011111110011111110011001001011001001011001001011001001011001001 #
b011111110011111110011111110011111110011111110011111110011111110011111110011111110011111110011111110011001001011001001011001001011001001011001001 !
#54
b011111110011111110011111110011111110011111110011111110011111110011111110011111110011111110011001001011001001011001001011001001011001001011001001 #
b011111110011111110011111110011111110011111110011111110011111110011111110011111110011111110011001001011001001011001001011001001011001001011001001 !
#55
b011111110011111110011111110011111110011111110011111110011111110011111110011111110011001001011001001011001001011001001011001001011001001011001001 #
b011111110011111110011111110011111110011111110011111110011111110011111110011111110011001001011001001011001001011001001011001001011001001011001001 !
#56
b011111110011111110011111110011111110011111110011111110011111110011111110011001001011001001011001001011001001011001001011001001011001001011001001 #
b011111110011111110011111110011111110011111110011111110011111110011111110011001001011001001011001001011001001011001001011001001011001001011001001 !
#57
b011111110011111110011111110011111110011111110011111110011111110011001001011001001011001001011001001011001001011001001011001001011001001011001001 #
b011111110011111110011111110011111110011111110011111110011111110011001001011001001011001001011001001011001001011001001011001001011001001011001001 !
#58
b011111110011111110011111110011111110011111110011111110011001001011001001011001001011001001011001001011001001011001001011001001011001001011001001 #
b011111110011111110011111110011111110011111110011111110011001001011001001011001001011001001011001001011001001011001001011001001011001001011001001 !
#59
b011111110011111110011111110011111110011111110011001001011001001011001001011001001011001001011001001011001001011001001011001001011001001011001001 #
b011111110011111110011111110011111110011111110011001001011001001011001001011001001011001001011001001011001001011001001011001001011001001011001001 !
#60
b011111110011111110011111110011111110011001001011001001011001001011001001011001001011001001011001001011001001011001001011001001011001001011001001 #
b011111110011111110011111110011111110011001001011001001011001001011001001011001001011001001011001001011001001011001001011001001011001001011001001 !
#61
b011111110011111110011111110011001001011001001011001001011001001011001001011001001011001001011001001011001001011001001011001001011001001011001001 #
b011111110011111110011111110011001001011001001011001001011001001011001001011001001011001001011001001011001001011001001011001001011001001011001001 !
#62
b011111110011111110011001001011001001011001001011001001011001001011001001011001001011001001011001001011001001011001001011001001011001001011001001 #
b011111110011111110011001001011001001011001001011001001011001001011001001011001001011001001011001001011001001011001001011001001011001001011001001 !
#63
b011111110011001001011001001011001001011001001011001001011001001011001001011001001011001001011001001011001001011001001011001001011001001011001001 #
b011111110011001001011001001011001001011001001011001001011001001011001001011001001011001001011001001011001001011001001011001001011001001011001001 !
#64
b011001001011001001011001001011001001011001001011001001011001001011001001011001001011001001011001001011001001011001001011001001011001001011001001 #
b011001001011001001011001001011001001011001001011001001011001001011001001011001001011001001011001001011001001011001001011001001011001001011001001 !
#65
b111110000 "
b011001001011001001011001001011001001011001001011001001011001001011001001011001001011001001011001001011001001011001001011001001011001001111110000 #
b011001001011001001011001001011001001011001001011001001011001001011001001011001001011001001011001001011001001011001001011001001011001001111110000 !
#66
b111110000 &
b011001001011001001011001001011001001011001001011001001011001001011001001011001001011001001011001001011001001011001001011001001111110000111110000 #
b011001001011001001011001001011001001011001001011001001011001001011001001011001001011001001011001001011001001011001001011001001111110000111110000 !
#67
b111110000 %
b011001001011001001011001001011001001011001001011001001011001001011001001011001001011001001011001001011001001011001001111110000111110000111110000 #
b011001001011001001011001001011001001011001001011001001011001001011001001011001001011001001011001001011001001011001001111110000111110000111110000 !
#68
b111110000 $
b011001001011001001011001001011001001011001001011001001011001001011001001011001001011001001011001001011001001111110000111110000111110000111110000 #
b011001001011001001011001001011001001011001001011001001011001001011001001011001001011001001011001001011001001111110000111110000111110000111110000 !
#69
b011001001011001001011001001011001001011001001011001001011001001011001001011001001011001001011001001111110000111110000111110000111110000111110000 #
b011001001011001001011001001011001001011001001011001001011001001011001001011001001011001001011001001111110000111110000111110000111110000111110000 !
#70
b011001001011001001011001001011001001011001001011001001011001001011001001011001001011001001111110000111110000111110000111110000111110000111110000 #
b011001001011001001011001001011001001011001001011001001011001001011001001011001001011001001111110000111110000111110000111110000111110000111110000 !
#71
b011001001011001001011001001011001001011001001011001001011001001011001001011001001111110000111110000111110000111110000111110000111110000111110000 #
b011001001011001001011001001011001001011001001011001001011001001011001001011001001111110000111110000111110000111110000111110000111110000111110000 !
#72
b011001001011001001011001001011001001011001001011001001011001001011001001111110000111110000111110000111110000111110000111110000111110000111110000 #
b011001001011001001011001001011001001011001001011001001011001001011001001111110000111110000111110000111110000111110000111110000111110000111110000 !
#73
b011001001011001001011001001011001001011001001011001001011001001111110000111110000111110000111110000111110000111110000111110000111110000111110000 #
b011001001011001001011001001011001001011001001011001001011001001111110000111110000111110000111110000111110000111110000111110000111110000111110000 !
#74
b011001001011001001011001001011001001011001001011001001111110000111110000111110000111110000111110000111110000111110000111110000111110000111110000 #
b011001001011001001011001001011001001011001001011001001111110000111110000111110000111110000111110000111110000111110000111110000111110000111110000 !
#75
b011001001011001001011001001011001001011001001111110000111110000111110000111110000111110000111110000111110000111110000111110000111110000111110000 #
b011001001011001001011001001011001001011001001111110000111110000111110000111110000111110000111110000111110000111110000111110000111110000111110000 !
#76
b011001001011001001011001001011001001111110000111110000111110000111110000111110000111110000111110000111110000111110000111110000111110000111110000 #
b011001001011001001011001001011001001111110000111110000111110000111110000111110000111110000111110000111110000111110000111110000111110000111110000 !
#77
b011001001011001001011001001111110000111110000111110000111110000111110000111110000111110000111110000111110000111110000111110000111110000111110000 #
b011001001011001001011001001111110000111110000111110000111110000111110000111110000111110000111110000111110000111110000111110000111110000111110000 !
#78
b011001001011001001111110000111110000111110000111110000111110000111110000111110000111110000111110000111110000111110000111110000111110000111110000 #
b011001001011001001111110000111110000111110000111110000111110000111110000111110000111110000111110000111110000111110000111110000111110000111110000 !
#79
b011001001111110000111110000111110000111110000111110000111110000111110000111110000111110000111110000111110000111110000111110000111110000111110000 #
b011001001111110000111110000111110000111110000111110000111110000111110000111110000111110000111110000111110000111110000111110000111110000111110000 !
#80
b111110000111110000111110000111110000111110000111110000111110000111110000111110000111110000111110000111110000111110000111110000111110000111110000 #
b111110000111110000111110000111110000111110000111110000111110000111110000111110000111110000111110000111110000111110000111110000111110000111110000 !
#81
b010100110 "
b111110000111110000111110000111110000111110000111110000111110000111110000111110000111110000111110000111110000111110000111110000111110000010100110 #
b111110000111110000111110000111110000111110000111110000111110000111110000111110000111110000111110000111110000111110000111110000111110000010100110 !
#82
b010100110 &
b111110000111110000111110000111110000111110000111110000111110000111110000111110000111110000111110000111110000111110000111110000010100110010100110 #
b111110000111110000111110000111110000111110000111110000111110000111110000111110000111110000111110000111110000111110000111110000010100110010100110 !
#83
b010100110 %
b111110000111110000111110000111110000111110000111110000111110000111110000111110000111110000111110000111110000111110000010100110010100110010100110 #
b111110000111110000111110000111110000111110000111110000111110000111110000111110000111110000111110000111110000111110000010100110010100110010100110 !
#84
b010100110 $
b111110000111110000111110000111110000111110000111110000111110000111110000111110000111110000111110000111110000010100110010100110010100110010100110 #
b111110000111110000111110000111110000111110000111110000111110000111110000111110000111110000111110000111110000010100110010100110010100110010100110 !
#85
b111110000111110000111110000111110000111110000111110000111110000111110000111110000111110000111110000010100110010100110010100110010100110010100110 #
b111110000111110000111110000111110000111110000111110000111110000111110000111110000111110000111110000010100110010100110010100110010100110010100110 !
#86
b111110000111110000111110000111110000111110000111110000111110000111110000111110000111110000010100110010100110010100110010100110010100110010100110 #
b111110000111110000111110000111110000111110000111110000111110000111110000111110000111110000010100110010100110010100110010100110010100110010100110 !
#87
b111110000111110000111110000111110000111110000111110000111110000111110000111110000010100110010100110010100110010100110010100110010100110010100110 #
b111110000111110000111110000111110000111110000111110000111110000111110000111110000010100110010100110010100110010100110010100110010100110010100110 !
#88
b111110000111110000111110000111110000111110000111110000111110000111110000010100110010100110010100110010100110010100110010100110010100110010100110 #
b111110000111110000111110000111110000111110000111110000111110000111110000010100110010100110010100110010100110010100110010100110010100110010100110 !
#89
b111110000111110000111110000111110000111110000111110000111110000010100110010100110010100110010100110010100110010100110010100110010100110010100110 #
b111110000111110000111110000111110000111110000111110000111110000010100110010100110010100110010100110010100110010100110010100110010100110010100110 !
#90
b111110000111110000111110000111110000111110000111110000010100110010100110010100110010100110010100110010100110010100110010100110010100110010100110 #
b111110000111110000111110000111110000111110000111110000010100110010100110010100110010100110010100110010100110010100110010100110010100110010100110 !
#91
b111110000111110000111110000111110000111110000010100110010100110010100110010100110010100110010100110010100110010100110010100110010100110010100110 #
b111110000111110000111110000111110000111110000010100110010100110010100110010100110010100110010100110010100110010100110010100110010100110010100110 !
#92
b111110000111110000111110000111110000010100110010100110010100110010100110010100110010100110010100110010100110010100110010100110010100110010100110 #
b111110000111110000111110000111110000010100110010100110010100110010100110010100110010100110010100110010100110010100110010100110010100110010100110 !
#93
b111110000111110000111110000010100110010100110010100110010100110010100110010100110010100110010100110010100110010100110010100110010100110010100110 #
b111110000111110000111110000010100110010100110010100110010100110010100110010100110010100110010100110010100110010100110010100110010100110010100110 !
#94
b111110000111110000010100110010100110010100110010100110010100110010100110010100110010100110010100110010100110010100110010100110010100110010100110 #
b111110000111110000010100110010100110010100110010100110010100110010100110010100110010100110010100110010100110010100110010100110010100110010100110 !
#95
b111110000010100110010100110010100110010100110010100110010100110010100110010100110010100110010100110010100110010100110010100110010100110010100110 #
b111110000010100110010100110010100110010100110010100110010100110010100110010100110010100110010100110010100110010100110010100110010100110010100110 !
#96
b010100110010100110010100110010100110010100110010100110010100110010100110010100110010100110010100110010100110010100110010100110010100110010100110 #
b010100110010100110010100110010100110010100110010100110010100110010100110010100110010100110010100110010100110010100110010100110010100110010100110 !
#97
b010100011 "
b010100110010100110010100110010100110010100110010100110010100110010100110010100110010100110010100110010100110010100110010100110010100110010100011 #
b010100110010100110010100110010100110010100110010100110010100110010100110010100110010100110010100110010100110010100110010100110010100110010100011 !
#98
b010100011 &
b010100110010100110010100110010100110010100110010100110010100110010100110010100110010100110010100110010100110010100110010100110010100011010100011 #
b010100110010100110010100110010100110010100110010100110010100110010100110010100110010100110010100110010100110010100110010100110010100011010100011 !
#99
b010100011 %
b010100110010100110010100110010100110010100110010100110010100110010100110010100110010100110010100110010100110010100110010100011010100011010100011 #
b010100110010100110010100110010100110010100110010100110010100110010100110010100110010100110010100110010100110010100110010100011010100011010100011 !
#100
b010100011 $
b010100110010100110010100110010100110010100110010100110010100110010100110010100110010100110010100110010100110010100011010100011010100011010100011 #
b010100110010100110010100110010100110010100110010100110010100110010100110010100110010100110010100110010100110010100011010100011010100011010100011 !
#101
b010100110010100110010100110010100110010100110010100110010100110010100110010100110010100110010100110010100011010100011010100011010100011010100011 #
b010100110010100110010100110010100110010100110010100110010100110010100110010100110010100110010100110010100011010100011010100011010100011010100011 !
#102
b010100110010100110010100110010100110010100110010100110010100110010100110010100110010100110010100011010100011010100011010100011010100011010100011 #
b010100110010100110010100110010100110010100110010100110010100110010100110010100110010100110010100011010100011010100011010100011010100011010100011 !
#103
b010100110010100110010100110010100110010100110010100110010100110010100110010100110010100011010100011010100011010100011010100011010100011010100011 #
b010100110010100110010100110010100110010100110010100110010100110010100110010100110010100011010100011010100011010100011010100011010100011010100011 !
#104
b010100110010100110010100110010100110010100110010100110010100110010100110010100011010100011010100011010100011010100011010100011010100011010100011 #
b010100110010100110010100110010100110010100110010100110010100110010100110010100011010100011010100011010100011010100011010100011010100011010100011 !
#105
b010100110010100110010100110010100110010100110010100110010100110010100011010100011010100011010100011010100011010100011010100011010100011010100011 #
b010100110010100110010100110010100110010100110010100110010100110010100011010100011010100011010100011010100011010100011010100011010100011010100011 !
#106
b010100110010100110010100110010100110010100110010100110010100011010100011010100011010100011010100011010100011010100011010100011010100011010100011 #
b010100110010100110010100110010100110010100110010100110010100011010100011010100011010100011010100011010100011010100011010100011010100011010100011 !
#107
b010100110010100110010100110010100110010100110010100011010100011010100011010100011010100011010100011010100011010100011010100011010100011010100011 #
b010100110010100110010100110010100110010100110010100011010100011010100011010100011010100011010100011010100011010100011010100011010100011010100011 !
#108
b010100110010100110010100110010100110010100011010100011010100011010100011010100011010100011010100011010100011010100011010100011010100011010100011 #
b010100110010100110010100110010100110010100011010100011010100011010100011010100011010100011010100011010100011010100011010100011010100011010100011 !
#109
b010100110010100110010100110010100011010100011010100011010100011010100011010100011010100011010100011010100011010100011010100011010100011010100011 #
b010100110010100110010100110010100011010100011010100011010100011010100011010100011010100011010100011010100011010100011010100011010100011010100011 !
#110
b010100110010100110010100011010100011010100011010100011010100011010100011010100011010100011010100011010100011010100011010100011010100011010100011 #
b010100110010100110010100011010100011010100011010100011010100011010100011010100011010100011010100011010100011010100011010100011010100011010100011 !
#111
b010100110010100011010100011010100011010100011010100011010100011010100011010100011010100011010100011010100011010100011010100011010100011010100011 #
b010100110010100011010100011010100011010100011010100011010100011010100011010100011010100011010100011010100011010100011010100011010100011010100011 !
#112
b010100011010100011010100011010100011010100011010100011010100011010100011010100011010100011010100011010100011010100011010100011010100011010100011 #
b010100011010100011010100011010100011010100011010100011010100011010100011010100011010100011010100011010100011010100011010100011010100011010100011 !
#113
b111000110 "
b010100011010100011010100011010100011010100011010100011010100011010100011010100011010100011010100011010100011010100011010100011010100011111000110 #
b010100011010100011010100011010100011010100011010100011010100011010100011010100011010100011010100011010100011010100011010100011010100011111000110 !
#114
b111000110 &
b010100011010100011010100011010100011010100011010100011010100011010100011010100011010100011010100011010100011010100011010100011111000110111000110 #
b010100011010100011010100011010100011010100011010100011010100011010100011010100011010100011010100011010100011010100011010100011111000110111000110 !
#115
b111000110 %
b010100011010100011010100011010100011010100011010100011010100011010100011010100011010100011010100011010100011010100011111000110111000110111000110 #
b010100011010100011010100011010100011010100011010100011010100011010100011010100011010100011010100011010100011010100011111000110111000110111000110 !
#116
b111000110 $
b010100011010100011010100011010100011010100011010100011010100011010100011010100011010100011010100011010100011111000110111000110111000110111000110 #
b010100011010100011010100011010100011010100011010100011010100011010100011010100011010100011010100011010100011111000110111000110111000110111000110 !
#117
b010100011010100011010100011010100011010100011010100011010100011010100011010100011010100011010100011111000110111000110111000110111000110111000110 #
b010100011010100011010100011010100011010100011010100011010100011010100011010100011010100011010100011111000110111000110111000110111000110111000110 !
#118
b010100011010100011010100011010100011010100011010100011010100011010100011010100011010100011111000110111000110111000110111000110111000110111000110 #
b010100011010100011010100011010100011010100011010100011010100011010100011010100011010100011111000110111000110111000110111000110111000110111000110 !
#119
b010100011010100011010100011010100011010100011010100011010100011010100011010100011111000110111000110111000110111000110111000110111000110111000110 #
b010100011010100011010100011010100011010100011010100011010100011010100011010100011111000110111000110111000110111000110111000110111000110111000110 !
#120
b010100011010100011010100011010100011010100011010100011010100011010100011111000110111000110111000110111000110111000110111000110111000110111000110 #
b010100011010100011010100011010100011010100011010100011010100011010100011111000110111000110111000110111000110111000110111000110111000110111000110 !
#121
b010100011010100011010100011010100011010100011010100011010100011111000110111000110111000110111000110111000110111000110111000110111000110111000110 #
b010100011010100011010100011010100011010100011010100011010100011111000110111000110111000110111000110111000110111000110111000110111000110111000110 !
#122
b010100011010100011010100011010100011010100011010100011111000110111000110111000110111000110111000110111000110111000110111000110111000110111000110 #
b010100011010100011010100011010100011010100011010100011111000110111000110111000110111000110111000110111000110111000110111000110111000110111000110 !
#123
b010100011010100011010100011010100011010100011111000110111000110111000110111000110111000110111000110111000110111000110111000110111000110111000110 #
b010100011010100011010100011010100011010100011111000110111000110111000110111000110111000110111000110111000110111000110111000110111000110111000110 !
#124
b010100011010100011010100011010100011111000110111000110111000110111000110111000110111000110111000110111000110111000110111000110111000110111000110 #
b010100011010100011010100011010100011111000110111000110111000110111000110111000110111000110111000110111000110111000110111000110111000110111000110 !
#125
b010100011010100011010100011111000110111000110111000110111000110111000110111000110111000110111000110111000110111000110111000110111000110111000110 #
b010100011010100011010100011111000110111000110111000110111000110111000110111000110111000110111000110111000110111000110111000110111000110111000110 !
#126
b010100011010100011111000110111000110111000110111000110111000110111000110111000110111000110111000110111000110111000110111000110111000110111000110 #
b010100011010100011111000110111000110111000110111000110111000110111000110111000110111000110111000110111000110111000110111000110111000110111000110 !
#127
b010100011111000110111000110111000110111000110111000110111000110111000110111000110111000110111000110111000110111000110111000110111000110111000110 #
b010100011111000110111000110111000110111000110111000110111000110111000110111000110111000110111000110111000110111000110111000110111000110111000110 !
#128
b111000110111000110111000110111000110111000110111000110111000110111000110111000110111000110111000110111000110111000110111000110111000110111000110 #
b111000110111000110111000110111000110111000110111000110111000110111000110111000110111000110111000110111000110111000110111000110111000110111000110 !
#129
b011000010 "
b111000110111000110111000110111000110111000110111000110111000110111000110111000110111000110111000110111000110111000110111000110111000110011000010 #
b111000110111000110111000110111000110111000110111000110111000110111000110111000110111000110111000110111000110111000110111000110111000110011000010 !
#130
b011000010 &
b111000110111000110111000110111000110111000110111000110111000110111000110111000110111000110111000110111000110111000110111000110011000010011000010 #
b111000110111000110111000110111000110111000110111000110111000110111000110111000110111000110111000110111000110111000110111000110011000010011000010 !
#131
b011000010 %
b111000110111000110111000110111000110111000110111000110111000110111000110111000110111000110111000110111000110111000110011000010011000010011000010 #
b111000110111000110111000110111000110111000110111000110111000110111000110111000110111000110111000110111000110111000110011000010011000010011000010 !
#132
b011000010 $
b111000110111000110111000110111000110111000110111000110111000110111000110111000110111000110111000110111000110011000010011000010011000010011000010 #
b111000110111000110111000110111000110111000110111000110111000110111000110111000110111000110111000110111000110011000010011000010011000010011000010 !
#133
b111000110111000110111000110111000110111000110111000110111000110111000110111000110111000110111000110011000010011000010011000010011000010011000010 #
b111000110111000110111000110111000110111000110111000110111000110111000110111000110111000110111000110011000010011000010011000010011000010011000010 !
